<?xml version="1.0" encoding="UTF-8" standalone="no"?>
<!-- Created with Inkscape (http://www.inkscape.org/) -->

<svg
   xmlns:dc="http://purl.org/dc/elements/1.1/"
   xmlns:cc="http://creativecommons.org/ns#"
   xmlns:rdf="http://www.w3.org/1999/02/22-rdf-syntax-ns#"
   xmlns:svg="http://www.w3.org/2000/svg"
   xmlns="http://www.w3.org/2000/svg"
   xmlns:sodipodi="http://sodipodi.sourceforge.net/DTD/sodipodi-0.dtd"
   xmlns:inkscape="http://www.inkscape.org/namespaces/inkscape"
   width="150mm"
   height="210mm"
   viewBox="0 0 150 210"
   version="1.1"
   id="svg8"
   inkscape:version="0.92.4 (5da689c313, 2019-01-14)"
   sodipodi:docname="crapovecto_small.svg">
  <defs
     id="defs2" />
  <sodipodi:namedview
     id="base"
     pagecolor="#ffffff"
     bordercolor="#666666"
     borderopacity="1.0"
     inkscape:pageopacity="0.0"
     inkscape:pageshadow="2"
     inkscape:zoom="0.7"
     inkscape:cx="297.75875"
     inkscape:cy="376.07746"
     inkscape:document-units="mm"
     inkscape:current-layer="layer2"
     showgrid="false"
     inkscape:window-width="1268"
     inkscape:window-height="1154"
     inkscape:window-x="2805"
     inkscape:window-y="182"
     inkscape:window-maximized="0" />
  <metadata
     id="metadata5">
    <rdf:RDF>
      <cc:Work
         rdf:about="">
        <dc:format>image/svg+xml</dc:format>
        <dc:type
           rdf:resource="http://purl.org/dc/dcmitype/StillImage" />
        <dc:title></dc:title>
      </cc:Work>
    </rdf:RDF>
  </metadata>
  <g
     inkscape:groupmode="layer"
     id="layer2"
     inkscape:label="Layer 2"
     style="display:inline"
     transform="translate(0,-87)">
    <path
       style="display:inline;fill:none;fill-opacity:1;stroke:#000000;stroke-width:16.0000002;stroke-linecap:round;stroke-linejoin:round;stroke-miterlimit:4;stroke-dasharray:none;stroke-opacity:1"
       d="M 318.88867 11.798828 C 311.38363 11.613632 303.0307 16.695322 299.00586 26.994141 C 294.71273 36.338051 297.23807 53.005666 291.42969 107.04883 C 286.54824 152.46751 277.11308 197.8239 274.19922 211.27734 C 270.97465 211.65586 268.41451 212.3414 267.18555 213.36719 C 261.08698 218.45761 259.10352 228.51953 259.10352 228.51953 L 259.12305 228.58203 C 244.73678 231.0931 232.81871 237.75198 223.49609 246.95508 C 203.79812 266.40052 198.26102 282.73975 197.99023 299.23047 C 197.99023 299.23047 190.16112 305.29105 186.37305 312.86719 C 182.58498 320.44333 181.07071 325.74768 185.11133 329.2832 C 186.98486 327.53626 188.78568 325.70859 190.57812 323.85156 C 187.03447 328.13053 184.05529 332.03849 181.52539 335.50195 C 181.34168 335.75281 181.1782 335.98127 181 336.22656 C 179.79634 337.88758 178.72677 339.38918 177.78906 340.75195 C 177.70491 340.87381 177.63479 340.97831 177.55273 341.09766 C 176.61666 342.46378 175.82971 343.62817 175.1875 344.61133 C 175.10359 344.73911 175.04024 344.83362 174.96094 344.95508 C 174.35586 345.88628 173.90892 346.5785 173.61133 347.05664 C 173.45544 347.30489 173.41104 347.37742 173.3125 347.53711 C 173.29204 347.57039 173.22812 347.66921 173.21094 347.69727 C 173.20894 347.69647 172.94336 347.59766 172.94336 347.59766 C 172.93425 347.4713 172.92702 347.36227 172.91797 347.23633 L 172.94531 346.70312 C 172.78089 344.8123 172.62787 342.89519 172.48438 340.96289 C 172.43581 340.25239 172.38259 339.50151 172.33594 338.80469 C 172.26015 337.71329 172.18764 336.61643 172.11914 335.51172 C 172.07456 334.82115 172.03867 334.18302 171.99609 333.50586 C 170.27265 303.49903 171.33634 268.60349 178.6582 227.41797 C 179.19392 224.40458 179.90564 221.74848 180.76172 219.41016 C 181.33244 217.85128 181.9682 216.43346 182.6582 215.14453 C 183.0032 214.50007 183.36107 213.88813 183.73242 213.30664 C 184.47513 212.14366 185.26925 211.10296 186.10352 210.17383 C 186.93743 209.24509 187.81183 208.42616 188.71875 207.70703 C 189.17241 207.34737 189.63506 207.01289 190.10352 206.70117 C 190.57151 206.38975 191.04688 206.10057 191.52734 205.83398 C 192.48924 205.3004 193.47466 204.85435 194.47266 204.48242 C 195.47067 204.11046 196.48242 203.8125 197.49805 203.57812 C 198.44925 203.35865 199.40257 203.19735 200.35352 203.07812 C 200.95063 203.00326 201.54653 202.94403 202.13867 202.90234 C 205.63792 202.65602 209.0186 202.94569 211.89062 203.26758 C 213.54346 203.45278 215.02881 203.64795 216.27148 203.75781 C 216.89282 203.81275 217.45229 203.84766 217.94336 203.84766 C 218.8852 203.84766 219.69741 203.8023 220.41016 203.72266 C 220.8889 203.66916 221.31475 203.59734 221.70312 203.50977 C 222.15942 203.40688 222.55512 203.27854 222.90234 203.13086 C 223.05011 203.06801 223.18816 203.00034 223.31836 202.92969 C 223.64909 202.75022 223.93961 202.55385 224.17188 202.32617 C 224.17255 202.32551 224.17316 202.32488 224.17383 202.32422 C 224.31511 202.18572 224.43957 202.03825 224.55078 201.88281 C 224.5513 201.88209 224.55222 201.88159 224.55273 201.88086 C 224.77546 201.56904 224.94125 201.22338 225.07227 200.84766 C 225.19003 200.50992 225.27618 200.14488 225.34961 199.75977 C 225.3581 199.71522 225.36884 199.67406 225.37695 199.62891 C 225.37706 199.62834 225.37685 199.62752 225.37695 199.62695 C 225.39961 199.50073 225.41914 199.33397 225.43945 199.20312 C 225.55925 198.43154 225.65005 197.6192 225.80273 196.70312 C 225.98131 195.6317 226.1566 194.42964 226.26562 193.18359 C 226.32014 192.56057 226.3585 191.92705 226.37109 191.29297 C 226.38997 190.3425 226.35168 189.39088 226.23047 188.47656 C 226.23038 188.47592 226.23055 188.47525 226.23047 188.47461 C 226.14952 187.86467 226.03093 187.27176 225.86719 186.70508 C 225.70361 186.13899 225.49494 185.5989 225.23242 185.09766 C 225.23216 185.09716 225.23268 185.0962 225.23242 185.0957 C 224.96952 184.59401 224.65185 184.13177 224.27344 183.7168 C 224.08423 183.50931 223.87935 183.31259 223.6582 183.13086 C 223.05992 182.63921 222.41061 182.21558 221.7207 181.85742 C 220.68584 181.32019 219.56186 180.93236 218.38281 180.69141 C 218.38219 180.69128 218.38148 180.69153 218.38086 180.69141 C 217.98782 180.6111 217.5891 180.54774 217.18555 180.5 C 216.78202 180.45224 216.37417 180.41968 215.96289 180.4043 C 215.16986 180.37464 214.36547 180.40832 213.55859 180.49805 C 213.46355 180.50861 213.36852 180.52295 213.27344 180.53516 C 211.78193 180.72679 210.29031 181.12439 208.85547 181.7168 C 208.10503 182.02657 207.37305 182.39288 206.66406 182.81055 C 206.50503 182.90426 206.34194 182.98878 206.18555 183.08789 C 206.18479 183.08837 206.18435 183.08937 206.18359 183.08984 C 205.81021 183.32653 205.44431 183.57839 205.08789 183.8457 C 205.08716 183.84625 205.08666 183.84711 205.08594 183.84766 C 204.72933 184.11505 204.33702 184.39249 203.91406 184.67969 C 203.91326 184.68023 203.91291 184.6811 203.91211 184.68164 C 203.48896 184.96893 203.03436 185.26613 202.55664 185.56836 C 200.64258 186.7793 198.33733 188.09012 196.02148 189.3457 C 190.23186 192.48465 184.37305 195.27539 184.37305 195.27539 C 184.37305 195.27539 184.42388 193.11468 185.01367 189.32422 C 185.01376 189.32363 185.01358 189.32286 185.01367 189.32227 C 185.11193 188.69088 185.22501 188.01438 185.35547 187.29492 C 185.35558 187.29433 185.35536 187.29356 185.35547 187.29297 C 185.38091 187.15269 185.41659 186.99117 185.44336 186.84766 C 185.79421 184.9665 186.26343 182.80761 186.88281 180.41406 C 186.94384 180.17823 186.99456 179.96107 187.05859 179.7207 C 187.05875 179.72012 187.05844 179.71933 187.05859 179.71875 C 187.31304 178.7637 187.5917 177.77368 187.89648 176.75 C 187.89666 176.74943 187.89631 176.74862 187.89648 176.74805 C 188.20131 175.72428 188.53288 174.6676 188.89258 173.58008 C 188.89276 173.57951 188.89239 173.57869 188.89258 173.57812 C 189.25251 172.48996 189.64115 171.37172 190.06055 170.22461 C 190.89908 167.93112 191.86142 165.52327 192.96484 163.02344 C 192.96518 163.02267 192.96646 163.02225 192.9668 163.02148 C 193.51839 161.77191 194.10395 160.4989 194.72852 159.20508 C 194.72892 159.20424 194.73006 159.20397 194.73047 159.20312 C 197.22999 154.02553 199.34922 149.58406 201.05664 145.76758 C 201.05701 145.76676 201.05823 145.76644 201.05859 145.76562 C 201.48513 144.8122 201.88529 143.8967 202.25977 143.01953 C 202.26012 143.01871 202.26137 143.0184 202.26172 143.01758 C 202.63612 142.14054 202.98337 141.30038 203.30469 140.49609 C 203.30502 140.49527 203.30631 140.49496 203.30664 140.49414 C 204.59291 137.27427 205.44838 134.62472 205.8418 132.43164 C 206.0385 131.3351 206.11914 130.3524 206.08008 129.4707 C 206.00198 127.70788 205.4438 126.34666 204.37305 125.27539 C 204.3727 125.27505 204.37339 125.27378 204.37305 125.27344 C 204.33164 125.23203 204.27906 125.19699 204.23633 125.15625 C 204.02348 124.95343 203.80056 124.75558 203.55664 124.57031 C 203.43643 124.47897 203.30302 124.39736 203.17578 124.31055 C 202.98214 124.17846 202.789 124.04689 202.58008 123.92578 C 202.44351 123.84658 202.29891 123.77548 202.15625 123.70117 C 201.9415 123.58935 201.72371 123.48109 201.49609 123.38086 C 201.33578 123.31024 201.17206 123.24431 201.00586 123.17969 C 200.78144 123.09244 200.55266 123.01144 200.31836 122.93555 C 200.14172 122.87831 199.96497 122.82398 199.7832 122.77344 C 199.53026 122.70311 199.27165 122.6428 199.00977 122.58594 C 198.83563 122.54812 198.664 122.50821 198.48633 122.47656 C 198.21281 122.42783 197.93322 122.393 197.65234 122.35938 C 197.47116 122.33768 197.29321 122.31012 197.10938 122.29492 C 196.75657 122.26576 196.39787 122.2563 196.03711 122.25195 C 195.93144 122.25068 195.82888 122.23736 195.72266 122.23828 C 195.18101 122.24296 194.63346 122.28163 194.08203 122.3457 C 193.65442 122.39534 193.22623 122.46533 192.79688 122.55273 C 192.70948 122.57054 192.62253 122.58801 192.53516 122.60742 C 192.08816 122.70667 191.64135 122.82615 191.19727 122.96875 C 191.12524 122.99188 191.05431 123.01866 190.98242 123.04297 C 190.52192 123.19862 190.06348 123.37111 189.61133 123.57617 C 189.57968 123.59053 189.54917 123.60844 189.51758 123.62305 C 189.05862 123.83515 188.60536 124.0741 188.16016 124.33984 C 188.12967 124.35805 188.09877 124.37412 188.06836 124.39258 C 187.97184 124.45115 187.87697 124.51498 187.78125 124.57617 C 187.61209 124.68435 187.44378 124.79371 187.27734 124.91016 C 187.18134 124.9773 187.08721 125.04921 186.99219 125.11914 C 186.84689 125.2261 186.70145 125.33372 186.55859 125.44727 C 186.44018 125.54136 186.32365 125.6396 186.20703 125.73828 C 186.08371 125.84264 185.96103 125.94904 185.83984 126.05859 C 185.7189 126.16791 185.59916 126.27998 185.48047 126.39453 C 185.36657 126.50447 185.2543 126.61761 185.14258 126.73242 C 185.0303 126.84779 184.91855 126.96364 184.80859 127.08398 C 184.68797 127.21601 184.57082 127.3541 184.45312 127.49219 C 184.35085 127.61219 184.2484 127.73083 184.14844 127.85547 C 184.01321 128.02407 183.88078 128.19977 183.75 128.37695 C 183.68047 128.47115 183.60923 128.56155 183.54102 128.6582 C 183.37491 128.89352 183.21461 129.13864 183.05664 129.38867 C 183.02004 129.44662 182.98146 129.49985 182.94531 129.55859 C 182.94502 129.55907 182.9456 129.56008 182.94531 129.56055 C 182.69683 129.96448 182.43596 130.45915 182.16797 131.03516 C 182.16769 131.03575 182.16825 131.03651 182.16797 131.03711 C 181.89991 131.61336 181.6235 132.26994 181.33984 132.99609 C 181.05572 133.72334 180.76458 134.51964 180.46875 135.375 C 180.17317 136.22967 179.87364 137.14126 179.57031 138.10156 C 179.57012 138.10218 179.57051 138.1029 179.57031 138.10352 C 179.26716 139.0633 178.9593 140.07023 178.65234 141.11328 C 175.27359 152.59335 171.78493 168.44365 170.80273 173.8457 C 170.62416 174.82785 170.41044 175.70926 170.17188 176.48633 C 170.1717 176.4869 170.17205 176.48771 170.17188 176.48828 C 169.69486 178.04145 169.11163 179.17605 168.47852 179.85938 C 168.32017 180.03027 168.15984 180.17323 167.99609 180.28711 C 167.3411 180.74261 166.65025 180.73898 165.97852 180.24023 C 165.81058 180.11555 165.64314 179.95843 165.47852 179.77148 C 164.98465 179.21066 164.50882 178.36848 164.07617 177.22852 C 163.93196 176.84853 163.79408 176.43471 163.66016 175.98828 C 163.52623 175.54185 163.3703 175.07446 163.19922 174.58398 C 162.00176 171.15104 159.98333 166.64108 158.39648 161.10156 C 158.39631 161.10097 158.39665 161.1002 158.39648 161.09961 C 158.33616 160.88899 158.28167 160.66477 158.22266 160.45117 C 157.83837 159.06 157.4784 157.6163 157.17188 156.09961 C 156.995 155.22448 156.83436 154.32867 156.69336 153.41211 C 156.41137 151.57898 156.20798 149.6633 156.11328 147.66602 C 155.9949 145.16942 156.04531 142.5463 156.32227 139.79688 C 156.37766 139.24699 156.44363 138.69076 156.51758 138.13086 C 156.54233 137.94343 156.54879 137.76441 156.53906 137.5918 C 156.50989 137.07395 156.32971 136.62344 156.02344 136.24414 C 155.7175 135.86524 155.28475 135.55706 154.75195 135.32422 C 154.75141 135.32398 154.75054 135.32445 154.75 135.32422 C 154.57269 135.24681 154.3843 135.1759 154.18555 135.11523 C 154.18496 135.11506 154.18418 135.11541 154.18359 135.11523 C 153.58586 134.933 152.89512 134.82845 152.13672 134.80273 C 152.13609 134.80271 152.1354 134.80276 152.13477 134.80273 C 150.61638 134.75154 148.82633 135.02162 146.96289 135.64453 C 146.6523 135.74834 146.33912 135.86083 146.02539 135.98438 C 144.45739 136.60212 142.86154 137.46898 141.35352 138.60156 C 140.75006 139.05474 140.15984 139.55018 139.5918 140.08984 C 139.02375 140.62951 138.47686 141.21333 137.95898 141.8418 C 137.44113 142.47027 136.95295 143.14368 136.5 143.86328 C 136.27352 144.22308 136.05514 144.59355 135.84766 144.97656 C 135.84739 144.97706 135.84793 144.97802 135.84766 144.97852 C 135.43301 145.7441 135.05819 146.55596 134.73047 147.41602 C 134.73025 147.41658 134.73069 147.4174 134.73047 147.41797 C 134.14156 148.96347 133.80743 150.5566 133.68555 152.17773 C 133.64493 152.71812 133.62785 153.26123 133.63281 153.80664 C 133.63304 153.83197 133.6364 153.85747 133.63672 153.88281 C 133.65039 154.94871 133.74477 156.0224 133.91406 157.09766 C 134.174 158.7488 134.6036 160.40353 135.16016 162.03906 C 135.53122 163.12944 135.95835 164.21276 136.42969 165.2793 C 136.901 166.34581 137.41655 167.39662 137.96289 168.42578 C 138.78245 169.96956 139.67248 171.46307 140.58984 172.88477 C 143.03602 176.67586 145.67805 179.95114 147.70898 182.2793 C 147.70929 182.27964 147.70868 182.2809 147.70898 182.28125 C 148.72399 183.44476 149.58681 184.37192 150.19531 185.00781 C 150.80403 185.64393 151.1582 185.98828 151.1582 185.98828 C 144.5296 187.99695 139.80924 186.56642 134.85742 185.97461 C 134.85678 185.97453 134.85611 185.97469 134.85547 185.97461 C 134.30583 185.90894 133.75358 185.85358 133.19531 185.81445 C 133.19467 185.81441 133.194 185.8145 133.19336 185.81445 C 129.83978 185.57962 126.27765 185.92857 121.87305 188.13086 C 121.38198 188.3764 120.90972 188.66462 120.45703 188.99023 C 120.00473 189.31557 119.57252 189.67933 119.16406 190.07422 C 118.95931 190.27217 118.76106 190.47794 118.56836 190.69141 C 118.18362 191.11761 117.82277 191.57247 117.49023 192.05273 C 117.48994 192.05317 117.49053 192.05426 117.49023 192.05469 C 117.15806 192.53455 116.85267 193.03909 116.57812 193.5625 C 116.16592 194.34835 115.82144 195.17648 115.55469 196.03125 C 115.5545 196.03184 115.55487 196.03262 115.55469 196.0332 C 115.28823 196.88741 115.09867 197.76832 114.99609 198.65625 C 114.89344 199.5448 114.87692 200.44092 114.95703 201.32812 C 114.98373 201.62386 115.02192 201.91796 115.07031 202.21094 C 115.07042 202.21157 115.07021 202.21225 115.07031 202.21289 C 115.11865 202.50523 115.17743 202.79568 115.24805 203.08398 C 115.2482 203.08461 115.24789 203.08532 115.24805 203.08594 C 115.31872 203.37425 115.40245 203.66038 115.49609 203.94336 C 115.49629 203.94395 115.4959 203.94472 115.49609 203.94531 C 115.68368 204.51186 115.91735 205.06615 116.20117 205.60352 C 116.20145 205.60404 116.2009 205.60495 116.20117 205.60547 C 116.34301 205.87392 116.49912 206.13726 116.66602 206.39648 C 116.66632 206.39696 116.66571 206.39796 116.66602 206.39844 C 116.83297 206.65768 117.01237 206.91144 117.20508 207.16016 C 117.20541 207.16058 117.20475 207.16168 117.20508 207.16211 C 117.39785 207.41084 117.605 207.65372 117.82422 207.89062 C 118.04407 208.1283 118.27628 208.35951 118.52344 208.58398 C 119.75733 209.70457 121.33661 210.65177 123.30273 211.3457 C 123.49247 211.41267 123.68921 211.46391 123.89453 211.5 C 124.30517 211.57217 124.7454 211.58565 125.21289 211.54883 C 127.78445 211.34631 131.161 209.64159 134.73242 208.04492 C 136.03092 207.46436 137.35496 206.89837 138.67578 206.42383 C 139.66639 206.06792 140.65458 205.76301 141.62891 205.54297 C 142.27846 205.39627 142.92153 205.28673 143.55469 205.22461 C 146.0873 204.9762 148.46013 205.48223 150.4375 207.36133 C 150.68467 207.59622 150.92383 207.85184 151.1582 208.13086 C 151.1582 208.13086 151.18638 208.49944 151.22266 209.17188 C 151.38588 212.19782 151.71896 221.38359 150.44141 230.87891 C 150.15751 232.98898 149.7945 235.11287 149.33203 237.18945 C 149.33189 237.19007 149.33217 237.19079 149.33203 237.19141 C 148.75401 239.78648 148.02125 242.3058 147.0957 244.62305 C 146.91055 245.08661 146.71652 245.54185 146.51562 245.98828 C 146.31473 246.43471 146.10064 246.97907 145.87305 247.61523 C 144.73507 250.79604 143.27806 256.27818 141.65234 263.36523 C 141.6522 263.36588 141.65249 263.36654 141.65234 263.36719 C 140.35188 269.03647 138.94384 275.73233 137.50391 283.09766 C 136.06382 290.46373 134.59215 298.49944 133.16602 306.84766 C 131.02682 319.36998 128.9887 332.59515 127.3125 345.31836 C 127.31242 345.31899 127.31258 345.31968 127.3125 345.32031 C 127.03322 347.44019 126.76389 349.54639 126.50586 351.63281 C 125.98963 355.80692 125.51839 359.90374 125.10156 363.87695 C 124.47632 369.83677 123.97459 375.52065 123.62695 380.77734 C 123.51107 382.52958 123.41227 384.23298 123.33203 385.88477 C 123.332 385.88539 123.33206 385.88609 123.33203 385.88672 C 123.01117 392.49301 122.98492 398.25158 123.33008 402.80469 C 123.41638 403.94308 123.52427 405.00614 123.6582 405.98828 C 124.72963 413.84543 125.75809 421.12276 126.66211 427.71875 C 127.79213 435.96373 128.73043 443.14512 129.32422 449.06641 C 129.56173 451.43492 129.74379 453.60191 129.86133 455.55469 C 129.97886 457.50746 130.03174 459.24589 130.00977 460.75781 C 129.9823 462.64772 129.83837 464.18291 129.55859 465.33984 C 129.50264 465.57123 129.44001 465.78739 129.37305 465.98828 C 129.23912 466.39007 129 467.03826 128.66797 467.90234 C 127.67187 470.49459 125.8471 475.03683 123.57031 480.75391 C 122.05246 484.56529 120.33343 488.89872 118.52539 493.52344 C 116.71735 498.14816 114.82031 503.06529 112.94531 508.04297 C 111.07031 513.02065 109.2168 518.05943 107.49805 522.92969 C 105.7793 527.79994 104.19475 532.50028 102.85547 536.80273 C 102.85529 536.8033 102.85564 536.80412 102.85547 536.80469 C 102.52085 537.87966 102.20065 538.92961 101.89844 539.95117 C 101.89827 539.95175 101.89861 539.95254 101.89844 539.95312 C 101.59626 540.97461 101.31122 541.96879 101.04492 542.92969 C 100.512 544.85264 100.05385 546.64607 99.685547 548.2832 C 99.133091 550.73891 98.78132 552.84143 98.677734 554.49219 C 98.643206 555.04244 98.635882 555.54185 98.658203 555.98828 C 98.699745 556.81911 98.765941 557.63745 98.84375 558.44727 C 98.849559 558.50772 98.851425 558.57053 98.857422 558.63086 C 98.857485 558.6315 98.857358 558.63217 98.857422 558.63281 C 99.030058 560.36901 99.280317 562.0525 99.583984 563.66602 C 99.584101 563.66664 99.583868 563.66735 99.583984 563.66797 C 100.0396 566.08842 100.61526 568.3521 101.23242 570.40234 C 101.2326 570.40293 101.23225 570.40371 101.23242 570.4043 C 102.46694 574.50499 103.86649 577.75169 104.78711 579.69336 C 104.78732 579.69381 104.7869 579.69487 104.78711 579.69531 C 105.09359 580.34165 105.34645 580.84355 105.52344 581.18359 C 105.70095 581.52471 105.80273 581.70312 105.80273 581.70312 L 90.802734 573.8457 C 90.337333 573.60192 89.858545 573.38736 89.367188 573.20117 C 87.893114 572.64261 86.305611 572.33976 84.632812 572.27148 C 82.960014 572.20321 81.202014 572.37008 79.382812 572.75 C 77.563611 573.12992 75.682813 573.72376 73.769531 574.50977 C 72.49401 575.03377 71.204206 575.64313 69.90625 576.33203 C 69.257272 576.67648 68.606758 577.04049 67.955078 577.42383 C 66.652166 578.19023 65.345065 579.03282 64.042969 579.94531 C 62.739978 580.85843 61.440957 581.84175 60.154297 582.88867 C 58.868096 583.93519 57.594219 585.04514 56.339844 586.21289 C 51.94947 590.30018 47.801728 595.09169 44.228516 600.32031 C 43.718062 601.06725 43.220401 601.82195 42.734375 602.58594 C 42.247835 603.35068 41.774576 604.12207 41.314453 604.90234 C 40.395124 606.46134 39.530753 608.05048 38.728516 609.66211 C 38.327397 610.46792 37.941205 611.27907 37.572266 612.0957 C 37.203327 612.91233 36.8524 613.7327 36.517578 614.55859 C 36.517258 614.55938 36.515945 614.55976 36.515625 614.56055 C 36.181151 615.38563 35.860667 616.2026 35.552734 617.00977 C 35.244185 617.8185 34.949699 618.61708 34.667969 619.4082 C 34.386507 620.19857 34.117802 620.9788 33.863281 621.75195 C 33.608555 622.52569 33.368194 623.29 33.140625 624.04688 C 32.685826 625.5595 32.284738 627.03883 31.939453 628.48633 C 31.766803 629.21007 31.607902 629.92479 31.462891 630.63281 C 31.172713 632.04949 30.93824 633.43508 30.759766 634.79102 C 30.670557 635.46869 30.596203 636.13772 30.535156 636.80078 C 30.474035 637.46449 30.42726 638.12009 30.394531 638.76953 C 30.32917 640.06649 30.320223 641.33587 30.369141 642.57812 C 30.393637 643.20022 30.432911 643.81489 30.486328 644.42383 C 30.539677 645.03213 30.607069 645.63298 30.689453 646.22852 C 30.689541 646.22915 30.689365 646.22983 30.689453 646.23047 C 30.77178 646.82535 30.868995 647.41357 30.980469 647.99609 C 31.315315 649.74621 31.78175 651.44076 32.382812 653.08594 C 32.583082 653.63413 32.799119 654.17561 33.029297 654.71289 C 33.029535 654.71345 33.029058 654.71429 33.029297 654.71484 C 33.259272 655.25157 33.503675 655.78238 33.763672 656.30859 C 35.065139 658.9429 36.743653 661.44719 38.810547 663.8457 C 39.223834 664.32531 39.65324 664.80019 40.097656 665.27148 C 40.986791 666.21443 41.936385 667.14085 42.951172 668.05273 C 43.45837 668.5085 43.980681 668.95964 44.519531 669.4082 C 45.059058 669.85737 45.614111 670.30182 46.185547 670.74414 C 46.756226 671.18587 47.342634 671.62528 47.945312 672.06055 C 48.902031 672.75151 49.89178 673.46227 50.921875 674.19141 C 50.92935 674.1967 50.93588 674.20174 50.943359 674.20703 C 54.028132 676.39007 57.484663 678.73546 61.525391 681.18555 C 64.225379 682.82268 67.193381 684.50601 70.486328 686.2207 C 85.309222 693.93921 106.82401 702.27191 141.08008 709.70117 C 142.98266 710.11379 144.92591 710.52292 146.9082 710.92969 C 148.88891 711.33613 150.91029 711.74054 152.97266 712.14062 C 152.51524 712.19715 149.80387 712.5296 146.40625 712.93555 C 144.24896 713.19246 141.20852 713.5374 138.4375 713.85742 C 136.08851 714.12901 134.07158 714.36853 131.4707 714.6582 C 128.72061 714.96411 125.90065 715.2713 123.10742 715.56445 C 120.55242 715.83261 118.06856 716.08043 115.6582 716.3125 C 115.24597 716.35214 114.79775 716.39932 114.39258 716.4375 C 112.27392 716.63739 110.37949 716.7941 108.53125 716.94336 C 107.98062 716.9877 107.32064 717.05098 106.80078 717.08984 C 106.20848 717.13427 105.69376 717.16649 105.14648 717.20312 C 104.65571 717.23587 104.12523 717.27673 103.67383 717.30273 C 103.60912 717.30646 103.5619 717.30696 103.49805 717.31055 C 102.64381 717.35848 101.8491 717.39575 101.16016 717.41602 C 99.6423 717.46066 97.782521 717.52356 95.664062 717.60938 C 82.953407 718.12417 60.876671 719.51731 46.759766 723.44727 C 45.583357 723.77476 44.462071 724.12069 43.40625 724.48438 C 42.350429 724.84806 41.360491 725.22907 40.445312 725.63086 C 32.208703 729.24692 26.00518 733.76744 22.027344 737.66602 C 21.585396 738.09917 21.171912 738.52373 20.785156 738.93945 C 20.784852 738.93978 20.78546 738.94108 20.785156 738.94141 C 20.603677 739.13649 20.448536 739.32115 20.279297 739.51172 C 19.727183 740.13333 19.219502 740.73703 18.798828 741.30078 C 18.06136 742.28906 17.546292 743.16516 17.220703 743.91211 C 17.182501 743.9998 17.128148 744.0979 17.095703 744.18164 C 17.095509 744.18214 17.095897 744.18309 17.095703 744.18359 C 17.064798 744.26344 17.05495 744.32816 17.029297 744.4043 C 16.969469 744.58161 16.904282 744.76179 16.873047 744.91797 C 16.828404 745.14118 16.792742 745.36541 16.765625 745.58984 C 16.711391 746.03871 16.693464 746.48696 16.71875 746.92188 C 16.744036 747.35679 16.812326 747.77797 16.929688 748.17383 C 17.047049 748.56968 17.213553 748.9398 17.435547 749.27148 C 17.546812 749.43773 17.672583 749.5929 17.8125 749.73828 C 17.951743 749.88297 18.104256 750.01777 18.273438 750.13867 C 18.273847 750.13896 18.274981 750.13838 18.275391 750.13867 C 18.614289 750.38062 19.014112 750.57334 19.482422 750.70117 C 19.48304 750.70134 19.483757 750.701 19.484375 750.70117 C 19.718337 750.76493 19.969701 750.81313 20.238281 750.84375 C 20.507534 750.87445 20.795951 750.88661 21.101562 750.88086 C 21.406639 750.87504 21.731362 750.85189 22.074219 750.80664 C 22.68745 750.72571 23.372232 750.5667 24.113281 750.3457 C 24.202525 750.31909 24.281877 750.30223 24.373047 750.27344 C 27.765902 749.20202 31.449455 747.54997 35.746094 745.65234 C 37.894413 744.70353 40.195503 743.69352 42.691406 742.66406 C 43.939358 742.14933 45.235885 741.63048 46.585938 741.11133 C 47.93599 740.59217 49.340445 740.07363 50.802734 739.56055 C 52.075056 739.11412 53.338035 738.68761 54.595703 738.28125 C 65.914716 734.62401 76.671724 732.5509 87.408203 731.35352 C 92.179972 730.82134 96.947863 730.46093 101.75977 730.21289 C 104.16442 730.08894 106.57915 729.99422 109.01172 729.91797 C 109.00487 729.92014 87.587154 736.70254 84.730469 738.13086 C 84.373327 738.30944 83.886532 738.51644 83.283203 738.75781 C 82.680117 738.99903 81.958889 739.27592 81.130859 739.59375 C 79.473493 740.22991 77.386161 741.03376 74.953125 742.06055 C 73.736607 742.57394 72.433734 743.14342 71.054688 743.77539 C 68.986575 744.72314 66.747864 745.81274 64.373047 747.06641 C 64.372523 747.06668 64.371618 747.06613 64.371094 747.06641 C 62.787493 747.90241 61.144985 748.81131 59.451172 749.80078 C 58.604265 750.29552 57.743583 750.80999 56.873047 751.3457 C 56.437779 751.61356 56.009 751.88742 55.587891 752.16602 C 54.325005 753.0015 53.128106 753.88403 52 754.80078 C 51.999603 754.8011 51.998443 754.80046 51.998047 754.80078 C 50.493443 756.02358 49.114676 757.30915 47.873047 758.62891 C 47.252232 759.28878 46.665336 759.95694 46.115234 760.63086 C 45.015032 761.97869 44.059187 763.34776 43.261719 764.71094 C 42.464251 766.07411 41.825649 767.43175 41.357422 768.75586 C 41.123308 769.41792 40.93199 770.0708 40.785156 770.71289 C 40.344656 772.63916 40.304321 774.45984 40.708984 776.08398 C 40.77642 776.35467 40.854902 776.61959 40.947266 776.87891 C 41.409042 778.17624 42.18616 779.32435 43.302734 780.27344 C 44.865235 781.60156 47.042527 782.2579 49.550781 782.31641 C 50.243243 782.33256 50.960326 782.30186 51.697266 782.22852 C 55.155038 781.88439 59.036029 780.57431 62.724609 778.45703 C 63.944998 777.75655 65.145 776.96856 66.300781 776.09766 C 67.84144 774.9367 69.305435 773.62884 70.638672 772.18945 C 70.639003 772.1891 70.63834 772.18786 70.638672 772.1875 C 72.305156 770.38817 73.769495 768.38264 74.925781 766.19727 C 74.926054 766.19675 74.925509 766.19583 74.925781 766.19531 C 75.157063 765.75812 75.376132 765.31461 75.582031 764.86328 C 75.787931 764.41195 75.981295 763.95332 76.160156 763.48828 C 76.271764 763.1981 76.418511 762.90964 76.599609 762.62109 C 76.961807 762.04401 77.4584 761.47002 78.070312 760.90234 C 78.681887 760.33498 79.409023 759.77287 80.232422 759.21875 C 84.764283 756.16946 92.219588 753.34933 99.462891 751.07812 C 101.80702 750.34307 104.10902 749.67767 106.30273 749.06836 C 109.03876 748.30842 111.59579 747.64176 113.72656 747.11523 C 117.56585 746.16657 120.08789 745.63086 120.08789 745.63086 C 120.08789 745.63086 119.80364 745.76063 119.29492 746.00977 C 118.78625 746.25889 118.05257 746.62833 117.15039 747.10742 C 115.79615 747.82658 114.06127 748.79414 112.14258 749.97852 C 111.50344 750.37306 110.84308 750.79291 110.16992 751.23438 C 108.82266 752.11792 107.42102 753.09303 106.02344 754.15039 C 104.62626 755.20749 103.23331 756.34661 101.90039 757.55859 C 101.89971 757.55921 101.89912 757.55993 101.89844 757.56055 C 101.87288 757.58379 101.84973 757.60952 101.82422 757.63281 C 101.18462 758.21675 100.55778 758.81521 99.953125 759.43164 C 99.323679 760.07334 98.716185 760.73165 98.138672 761.40625 C 96.984247 762.75474 95.948839 764.16505 95.087891 765.63086 C 92.518375 770.00558 91.205152 773.32036 90.822266 775.83203 C 90.745703 776.33437 90.705999 776.80593 90.701172 777.24609 C 90.691486 778.12641 90.820615 778.88474 91.066406 779.54102 C 91.066619 779.54158 91.066194 779.5424 91.066406 779.54297 C 91.250689 780.03448 91.501545 780.46766 91.808594 780.84961 C 91.808924 780.85002 91.808264 780.85115 91.808594 780.85156 C 92.525826 781.74319 93.555093 782.35523 94.78125 782.77539 C 95.48223 783.0156 96.247016 783.19285 97.056641 783.32422 C 97.461449 783.3899 97.878627 783.44364 98.302734 783.48828 C 98.938895 783.55525 99.609129 783.52529 100.31641 783.40234 C 101.96671 783.11547 103.81576 782.32522 105.89062 781.08984 C 107.07626 780.38391 108.33613 779.53182 109.67383 778.54688 C 111.01118 777.56221 112.42668 776.4424 113.92578 775.20117 C 116.17508 773.3387 118.61302 771.20147 121.25391 768.82422 C 124.77511 765.65457 128.6596 762.05943 132.94531 758.13086 C 147.92895 744.39588 171.89639 726.24937 201.25586 718.65234 C 205.48602 718.92848 209.41759 719.0921 213.06641 719.16992 C 216.71018 719.24763 220.06564 719.2394 223.14453 719.16602 C 223.14776 719.16594 223.15107 719.16609 223.1543 719.16602 C 223.15702 719.16595 223.15939 719.16608 223.16211 719.16602 C 225.09468 719.11979 226.87326 719.04392 228.58789 718.95312 C 229.81301 718.88857 230.99568 718.81662 232.11133 718.73438 C 232.77565 718.68523 233.3937 718.63235 234.01953 718.57812 C 234.89363 718.50269 235.72558 718.42507 236.52539 718.3418 C 237.01362 718.29081 237.51192 718.24264 237.97266 718.18945 C 239.13084 718.05619 240.21834 717.91647 241.20508 717.77539 C 241.54671 717.72641 241.83108 717.68007 242.15234 717.63086 C 242.85865 717.523 243.5238 717.41675 244.13281 717.31055 C 244.4661 717.25229 244.76981 717.19749 245.07422 717.14062 C 245.5794 717.04659 246.0342 716.95712 246.46094 716.86914 C 246.70717 716.81821 246.96922 716.76689 247.18945 716.71875 C 247.1984 716.71679 247.20398 716.71679 247.21289 716.71484 C 247.24176 716.70855 247.24892 716.70546 247.27734 716.69922 C 248.21846 716.49179 248.67479 716.37677 249.13281 716.25195 C 249.72325 716.0959 250.08789 715.98828 250.08789 715.98828 C 250.08789 715.98828 250.6322 716.28076 251.39062 716.67383 C 251.67518 716.82186 251.783 716.87642 252.17188 717.07031 C 252.53554 717.25283 252.88148 717.41975 253.33008 717.63477 C 253.72038 717.8211 254.14839 718.01476 254.5957 718.21875 C 258.39231 719.95936 264.04264 722.18783 269.76172 723.06641 L 269.72852 723.13086 C 269.72852 723.13085 269.73046 723.13087 269.73047 723.13086 L 269.73242 723.13086 C 278.43068 727.47934 295.89418 730.28993 324.19922 727.08008 L 330.25391 727.10352 C 331.45031 727.14337 332.65423 727.18523 334.02734 727.25586 C 334.08756 727.25899 334.15235 727.26243 334.21289 727.26562 C 335.85271 727.35132 337.64388 727.46873 339.51758 727.60938 C 339.80418 727.63101 340.07733 727.6488 340.36914 727.67188 C 342.33718 727.82674 344.42427 728.01585 346.62109 728.24414 C 348.03178 728.39107 349.47264 728.55103 350.9707 728.73242 C 351.17425 728.75704 351.38863 728.78525 351.59375 728.81055 C 353.00113 728.98428 354.44902 729.17584 355.92773 729.38281 C 356.35903 729.44317 356.79324 729.50695 357.23047 729.57031 C 358.72869 729.78743 360.25977 730.02148 361.82422 730.27539 C 362.06668 730.31476 362.3009 730.34838 362.54492 730.38867 C 364.31804 730.68135 366.13914 731.00403 367.99023 731.34766 C 368.48561 731.43968 368.99333 731.54085 369.49414 731.63672 C 370.94253 731.91382 372.41108 732.2072 373.90234 732.51758 C 374.43421 732.62833 374.96475 732.7364 375.50195 732.85156 C 377.47607 733.27461 379.47456 733.71812 381.51562 734.20312 C 390.53348 736.34599 399.06121 738.93596 406.96289 741.67578 C 410.91378 743.04576 414.70843 744.45299 418.33008 745.86133 C 421.95167 747.26959 425.39934 748.6781 428.6582 750.05078 C 431.91713 751.42355 434.98689 752.76018 437.84961 754.02344 C 440.71227 755.28661 443.3678 756.47691 445.80078 757.55664 C 448.23441 758.63671 450.44379 759.60516 452.41406 760.42773 C 453.39898 760.83892 454.32269 761.21389 455.18555 761.54688 C 455.18607 761.54708 455.18698 761.54667 455.1875 761.54688 C 456.04964 761.87956 456.84986 762.17261 457.58594 762.41797 C 457.58647 762.41815 457.58736 762.41779 457.58789 762.41797 C 457.9439 762.5366 458.31199 762.64302 458.6875 762.74219 C 458.78655 762.76835 458.88994 762.78963 458.99023 762.81445 C 459.26938 762.88352 459.54983 762.95107 459.83789 763.00977 C 459.97476 763.03767 460.11519 763.06036 460.25391 763.08594 C 460.51226 763.13355 460.77097 763.18112 461.03516 763.2207 C 461.18341 763.24292 461.33445 763.25959 461.48438 763.2793 C 461.75011 763.31421 462.01671 763.34795 462.28711 763.375 C 462.43869 763.39018 462.59126 763.40329 462.74414 763.41602 C 463.00152 763.43741 463.25896 763.45625 463.51953 763.4707 C 463.71096 763.48135 463.90282 763.48916 464.0957 763.49609 C 464.26595 763.50218 464.43622 763.50656 464.60742 763.50977 C 465.32571 763.52337 466.04958 763.51119 466.77734 763.47461 C 466.89484 763.46867 467.01134 763.46036 467.12891 763.45312 C 467.87725 763.40732 468.62561 763.33989 469.36914 763.24219 C 469.41769 763.23579 469.46517 763.22732 469.51367 763.2207 C 471.5404 762.94498 473.5177 762.47818 475.32227 761.83008 C 475.32863 761.82779 475.33544 761.82651 475.3418 761.82422 C 475.34375 761.82351 475.3457 761.82297 475.34766 761.82227 C 475.66743 761.70702 475.97924 761.58362 476.28711 761.45703 C 476.35129 761.43058 476.41684 761.40585 476.48047 761.37891 C 476.79995 761.24393 477.10961 761.10038 477.41406 760.95312 C 477.42559 760.94755 477.43772 760.94309 477.44922 760.9375 C 477.45586 760.93426 477.46211 760.93098 477.46875 760.92773 C 477.77925 760.77635 478.08016 760.61918 478.37305 760.45508 C 478.4018 760.43893 478.43041 760.42252 478.45898 760.40625 C 478.75862 760.23603 479.04734 760.05854 479.32617 759.875 C 479.61663 759.68381 479.89446 759.48477 480.16016 759.2793 C 483.08933 757.0141 484.43404 753.8885 482.72656 750.00977 C 482.57171 749.658 482.39387 749.29958 482.1875 748.93555 C 482.52315 749.15132 482.99142 749.43847 483.57617 749.76562 C 484.08251 750.04823 484.69046 750.36062 485.36914 750.6875 C 485.56205 750.78071 485.74085 750.86785 485.94727 750.96289 C 486.08124 751.02442 486.2179 751.08448 486.35742 751.14648 C 486.70983 751.30353 487.07748 751.4615 487.46484 751.61914 C 487.6128 751.67923 487.75921 751.73707 487.91211 751.79688 C 488.33649 751.96323 488.7823 752.12578 489.24414 752.28711 C 489.36921 752.33072 489.4875 752.37493 489.61523 752.41797 C 490.85206 752.83552 492.20488 753.22332 493.67969 753.54492 C 494.39642 753.70121 495.1435 753.83893 495.91211 753.95898 C 496.06046 753.98218 496.21503 753.99788 496.36523 754.01953 C 496.9887 754.1093 497.62452 754.18776 498.2793 754.24805 C 498.50708 754.26908 498.73927 754.28369 498.9707 754.30078 C 499.56616 754.34461 500.17198 754.37319 500.79102 754.38867 C 501.19187 754.39883 501.59164 754.4091 502.00195 754.40625 C 502.16976 754.40503 502.33454 754.4078 502.50391 754.4043 C 503.17518 754.39064 503.86181 754.35459 504.55664 754.30273 C 504.72628 754.29002 504.89539 754.27685 505.06641 754.26172 C 505.78547 754.19832 506.51553 754.11454 507.25781 754.00586 C 507.39244 753.98611 507.52869 753.96272 507.66406 753.94141 C 508.42782 753.82135 509.19992 753.6804 509.98633 753.50781 C 510.01999 753.50042 510.05224 753.49772 510.08594 753.49023 C 510.46545 753.4059 510.82887 753.31178 511.19141 753.21875 C 511.7884 753.06557 512.37075 752.90472 512.91992 752.72852 C 513.36044 752.58717 513.78686 752.43897 514.19531 752.2832 C 514.19613 752.28289 514.19645 752.28156 514.19727 752.28125 C 514.43612 752.19014 514.6572 752.09205 514.88477 751.99609 C 516.10348 751.48208 517.15905 750.9004 518.0332 750.25391 C 518.11361 750.19447 518.20392 750.13864 518.28125 750.07812 C 518.282 750.07754 518.28246 750.07676 518.2832 750.07617 C 518.31808 750.04886 518.34661 750.01971 518.38086 749.99219 C 518.60984 749.80807 518.83091 749.61946 519.03125 749.42578 C 519.49348 748.97906 519.87842 748.5093 520.18164 748.01367 C 520.78763 747.02316 521.067 745.93666 520.98242 744.76758 C 520.94013 744.18303 520.80692 743.57813 520.57812 742.95312 C 520.23493 742.01562 519.6775 741.03436 518.88867 740.01367 C 517.57396 738.31253 515.61928 736.50279 512.95117 734.60547 C 511.88396 733.84652 510.70228 733.07256 509.40234 732.28711 C 508.10238 731.50167 506.68255 730.70368 505.14062 729.89453 C 503.59872 729.08537 501.93374 728.26563 500.14062 727.43555 C 498.3475 726.60547 496.42662 725.76618 494.37305 724.91797 C 494.25006 724.59373 494.12284 724.27731 493.98828 723.96875 C 493.85398 723.66071 493.71298 723.36163 493.56641 723.06836 C 492.68698 721.30872 491.58063 719.80775 490.16602 718.47266 C 489.92992 718.2498 489.68524 718.03237 489.43164 717.81836 C 488.16513 716.74956 486.67687 715.7851 484.91797 714.87305 C 484.21514 714.50857 483.46954 714.15211 482.67773 713.80078 C 482.67721 713.80055 482.67631 713.80101 482.67578 713.80078 C 481.88334 713.44921 481.04568 713.10302 480.1582 712.75781 C 478.3833 712.06742 476.41329 711.38347 474.22266 710.67773 C 473.12658 710.3246 471.97665 709.9668 470.76758 709.59961 C 465.93499 708.13198 460.17773 706.52483 453.30273 704.56055 C 453.3021 704.56037 453.30141 704.56073 453.30078 704.56055 C 453.26259 704.54964 453.22758 704.54016 453.18945 704.5293 C 451.69713 704.10406 450.2669 703.72539 448.86914 703.36914 C 448.43795 703.25927 448.01803 703.15637 447.5957 703.05273 C 446.50614 702.78526 445.44686 702.53835 444.41602 702.31055 C 444.09127 702.23881 443.75845 702.15977 443.43945 702.0918 C 442.12062 701.81063 440.85007 701.55837 439.62891 701.33789 C 439.44439 701.30458 439.27216 701.27809 439.08984 701.24609 C 438.03863 701.06153 437.02538 700.89921 436.04688 700.75586 C 435.78522 700.71752 435.52411 700.6801 435.26758 700.64453 C 434.1744 700.49297 433.11403 700.3587 432.11328 700.25391 C 432.10504 700.25304 432.09612 700.25086 432.08789 700.25 C 432.08585 700.24979 432.08407 700.25021 432.08203 700.25 C 431.06379 700.14373 430.10385 700.06385 429.17969 700 C 428.92158 699.98212 428.67667 699.96996 428.42578 699.95508 C 427.75302 699.9153 427.10552 699.8832 426.48438 699.86328 C 426.26246 699.85609 426.03573 699.84668 425.82031 699.8418 C 425.04504 699.82449 424.30509 699.81893 423.61328 699.82812 C 423.46229 699.83005 423.32872 699.83682 423.18164 699.83984 C 422.70488 699.84992 422.25811 699.86628 421.82227 699.88672 C 419.87669 699.9765 418.34301 700.15168 417.17969 700.34375 C 417.20794 700.33153 417.23543 700.31887 417.26367 700.30664 C 418.95477 699.5746 420.62866 698.8303 422.28711 698.07617 C 422.65832 697.90739 423.02322 697.73627 423.39258 697.56641 C 424.71544 696.958 426.02553 696.34259 427.32227 695.7207 C 427.71264 695.53351 428.10049 695.34659 428.48828 695.1582 C 429.78816 694.52667 431.07143 693.88873 432.33984 693.24414 C 432.67518 693.07375 433.01273 692.9037 433.3457 692.73242 C 434.91338 691.92591 436.46181 691.11273 437.97266 690.28711 C 439.4913 689.45723 440.9719 688.61574 442.42578 687.76758 C 442.75491 687.5756 443.07286 687.38038 443.39844 687.1875 C 444.4882 686.54179 445.55952 685.89188 446.60742 685.23633 C 447.0253 684.97494 447.43874 684.71408 447.84961 684.45117 C 448.81841 683.83118 449.76349 683.20628 450.69141 682.57812 C 451.12512 682.28454 451.56784 681.99257 451.99219 681.69727 C 452.24343 681.52241 452.49039 681.34732 452.73828 681.17188 C 453.60999 680.55494 454.46632 679.93658 455.29492 679.3125 C 455.34356 679.27586 455.39487 679.23979 455.44336 679.20312 C 455.44377 679.20281 455.4449 679.20344 455.44531 679.20312 C 457.16022 677.90658 458.81969 676.58237 460.39648 675.21484 C 461.18488 674.53108 461.95211 673.83647 462.69531 673.12891 C 463.81012 672.06757 464.87014 670.97779 465.86328 669.85156 C 465.86361 669.85119 465.86295 669.84998 465.86328 669.84961 C 466.19401 669.47458 466.51852 669.09612 466.83398 668.71289 C 466.83431 668.7125 466.83366 668.71133 466.83398 668.71094 C 467.78086 667.56043 468.65785 666.37216 469.45117 665.13867 C 469.98055 664.31557 470.47172 663.47252 470.92383 662.60742 C 471.60132 661.31107 472.18982 659.96449 472.67383 658.5625 C 472.83543 658.0944 472.9848 657.62151 473.12305 657.14062 C 473.53711 655.70036 473.84458 654.20075 474.0332 652.63672 C 474.09618 652.11453 474.14557 651.58582 474.18164 651.04883 C 474.25365 649.97677 474.27104 648.87434 474.23047 647.74023 C 474.18985 646.60486 474.09221 645.43791 473.93164 644.23633 C 473.85144 643.63587 473.75602 643.02791 473.64453 642.41016 C 473.53293 641.79181 473.40556 641.16547 473.26172 640.5293 C 473.11805 639.89375 472.95799 639.24955 472.78125 638.5957 C 472.60431 637.9411 472.41019 637.27892 472.19922 636.60547 C 471.98853 635.93281 471.76116 635.25251 471.51562 634.56055 C 471.27107 633.87136 471.01881 633.19849 470.75781 632.54297 C 470.75672 632.54022 470.755 632.5379 470.75391 632.53516 C 470.49398 631.88263 470.22708 631.24658 469.95117 630.62695 C 469.94876 630.62154 469.94577 630.61673 469.94336 630.61133 C 469.66502 629.98689 469.37825 629.37857 469.08398 628.78711 C 468.79445 628.20507 468.498 627.63846 468.19336 627.08789 C 468.18819 627.07855 468.18291 627.06988 468.17773 627.06055 C 467.87418 626.51288 467.56431 625.98178 467.24609 625.46484 C 467.24561 625.46407 467.24462 625.46367 467.24414 625.46289 C 466.98852 625.0477 466.72584 624.64953 466.46094 624.25391 C 466.39056 624.14879 466.32298 624.03734 466.25195 623.93359 C 466.25009 623.93087 466.24796 623.92851 466.24609 623.92578 C 466.02055 623.59654 465.7867 623.28427 465.55469 622.96875 C 465.44052 622.81348 465.33056 622.65002 465.21484 622.49805 C 465.21172 622.49395 465.2082 622.49043 465.20508 622.48633 C 464.92471 622.11847 464.63699 621.76665 464.34766 621.41797 C 464.27604 621.33166 464.20693 621.23944 464.13477 621.1543 C 464.13296 621.15217 464.13071 621.15056 464.12891 621.14844 C 463.91761 620.89926 463.70028 620.66503 463.48438 620.42578 C 463.31929 620.24288 463.15798 620.05214 462.99023 619.875 C 462.98416 619.86858 462.97874 619.86188 462.97266 619.85547 C 462.60505 619.46789 462.22978 619.09465 461.84961 618.73438 C 461.55832 618.45833 461.25946 618.19773 460.96094 617.9375 C 460.85532 617.84543 460.75299 617.74636 460.64648 617.65625 C 460.64007 617.65082 460.63337 617.64604 460.62695 617.64062 C 460.33553 617.39452 460.03826 617.16319 459.74023 616.93164 C 459.62742 616.84399 459.51804 616.74964 459.4043 616.66406 C 459.39979 616.66068 459.39513 616.65768 459.39062 616.6543 C 458.97419 616.34138 458.55179 616.04331 458.12305 615.75781 C 457.75981 615.51593 457.38945 615.28891 457.01758 615.06641 C 456.94598 615.02357 456.8766 614.97572 456.80469 614.93359 C 456.79965 614.93064 456.7941 614.92873 456.78906 614.92578 C 456.46616 614.7369 456.13778 614.56137 455.80859 614.38672 C 455.68102 614.31905 455.55624 614.24524 455.42773 614.17969 C 455.09117 614.00796 454.74716 613.85068 454.4043 613.69336 C 454.28904 613.64047 454.17651 613.58057 454.06055 613.5293 C 454.05336 613.52612 454.04625 613.5227 454.03906 613.51953 C 453.62348 613.33621 453.20178 613.16674 452.77734 613.00391 C 452.73013 612.98579 452.68404 612.96513 452.63672 612.94727 C 452.63402 612.94625 452.6316 612.94438 452.62891 612.94336 C 452.15142 612.7633 451.668 612.5981 451.17969 612.44336 C 450.76551 612.31211 450.34558 612.19537 449.92383 612.08203 C 449.83666 612.05862 449.75155 612.03047 449.66406 612.00781 C 449.17109 611.88008 448.67283 611.7641 448.16992 611.66016 C 447.65753 611.55425 447.14153 611.46059 446.61914 611.37891 C 446.10696 611.29882 445.58984 611.23108 445.06836 611.17383 C 445.05787 611.17268 445.0476 611.17106 445.03711 611.16992 C 445.03583 611.16978 445.03448 611.17006 445.0332 611.16992 C 444.53969 611.11624 444.04063 611.07466 443.53906 611.04102 C 443.50174 611.03851 443.4651 611.03364 443.42773 611.03125 C 443.42387 611.031 443.41988 611.0315 443.41602 611.03125 C 442.90802 610.99887 442.39486 610.97715 441.87891 610.96484 C 441.84944 610.96414 441.8205 610.96158 441.79102 610.96094 C 441.78843 610.96088 441.78579 610.96099 441.7832 610.96094 C 441.23591 610.94921 440.68481 610.94865 440.12891 610.95898 C 439.58954 610.96901 439.04521 610.99111 438.49805 611.02148 C 438.47839 611.02258 438.45912 611.02232 438.43945 611.02344 C 438.43684 611.02359 438.43425 611.02329 438.43164 611.02344 C 437.86718 611.05559 437.29899 611.09904 436.72656 611.15234 C 436.21152 611.2003 435.69312 611.2595 435.17188 611.32422 C 435.10011 611.33313 435.02891 611.33843 434.95703 611.34766 C 434.46847 611.41036 433.97619 611.4835 433.48242 611.56055 C 433.38702 611.57543 433.29286 611.5881 433.19727 611.60352 C 432.6568 611.69067 432.11281 611.78676 431.56641 611.89062 C 431.52186 611.89909 431.47818 611.90744 431.43359 611.91602 C 430.84073 612.03007 430.24405 612.1539 429.64453 612.28711 C 429.04107 612.4212 428.4341 612.56377 427.82422 612.7168 C 427.99877 612.2991 428.15962 611.8849 428.29688 611.47852 C 428.36126 611.29188 428.40685 611.11185 428.46289 610.92773 C 428.52772 610.71063 428.60477 610.48902 428.6582 610.27539 C 428.65835 610.27479 428.65805 610.27404 428.6582 610.27344 C 429.1045 608.48824 429.40593 606.43531 429.55664 604.15234 C 429.55668 604.15171 429.5566 604.15102 429.55664 604.15039 C 429.63198 603.00851 429.67062 601.81086 429.66992 600.55859 C 429.66853 598.05406 429.51311 595.33684 429.19922 592.44727 C 428.72843 588.11344 427.90043 583.38854 426.69531 578.40039 C 426.69517 578.39978 426.69546 578.39904 426.69531 578.39844 C 425.89174 575.07255 424.91936 571.63002 423.77539 568.10742 C 423.2034 566.34612 422.58887 564.56588 421.92969 562.76953 C 421.6001 561.87136 421.25985 560.96963 420.9082 560.06445 C 420.2049 558.25411 419.45665 556.43088 418.66406 554.59961 C 417.47541 551.85322 416.18441 549.0873 414.79102 546.32031 C 414.79076 546.3198 414.79127 546.31887 414.79102 546.31836 C 412.933 542.62883 410.89 538.93564 408.6582 535.27539 C 408.65784 535.27479 408.65857 535.27404 408.6582 535.27344 C 407.63342 533.59279 407.17864 532.85905 406.26367 531.36133 C 403.60728 527.01332 401.09755 522.90832 399.33008 520.03711 C 397.10648 516.42245 395.59277 513.98343 394.33203 511.96094 L 395.44141 511.34766 C 395.43568 511.3518 395.04128 511.63797 394.80859 511.96484 C 394.80805 511.96561 394.80719 511.96603 394.80664 511.9668 C 394.74879 512.04839 394.70233 512.13235 394.67383 512.21484 C 394.61514 512.3826 394.63442 512.54202 394.80469 512.66602 C 395.05797 512.85045 395.64503 512.95206 396.80469 512.86328 C 397.19183 512.83364 397.64233 512.7828 398.16602 512.70703 C 399.63619 512.49433 401.72384 512.069 404.53711 511.375 C 406.01309 511.01089 407.72407 510.55842 409.65234 510.02539 C 410.59448 509.76496 411.52573 509.51029 412.58594 509.20508 C 415.38523 508.39922 418.32328 507.71266 421.33594 507.12891 C 423.29046 506.75018 425.2776 506.42079 427.28125 506.12891 C 430.15392 505.71043 433.0576 505.37608 435.95117 505.12305 C 436.22898 505.09875 436.50568 505.07363 436.7832 505.05078 C 439.93979 504.79093 443.07784 504.61869 446.13086 504.53516 C 447.71205 504.49193 449.27238 504.47072 450.80078 504.4707 C 452.32979 504.47067 453.82803 504.49278 455.28711 504.5332 C 455.28774 504.53322 455.28843 504.53319 455.28906 504.5332 C 456.74744 504.57363 458.16568 504.63288 459.53711 504.71094 C 459.53774 504.71097 459.53843 504.7109 459.53906 504.71094 C 460.91041 504.78901 462.23462 504.88513 463.50195 504.99805 C 463.50257 504.9981 463.50328 504.99799 463.50391 504.99805 C 464.77113 505.11098 465.98276 505.24173 467.12891 505.38672 C 467.12952 505.3868 467.13025 505.38664 467.13086 505.38672 C 468.27686 505.53171 469.35736 505.69097 470.36523 505.86523 C 470.36583 505.86534 470.36659 505.86513 470.36719 505.86523 C 471.37488 506.0395 472.30959 506.22895 473.16211 506.42969 C 473.16268 506.42982 473.16349 506.42955 473.16406 506.42969 C 473.5899 506.52998 473.99499 506.63385 474.37891 506.74023 C 474.37949 506.74039 474.38028 506.74007 474.38086 506.74023 C 474.76465 506.84661 475.12704 506.95624 475.4668 507.06836 C 475.80775 507.18084 476.12544 507.29616 476.41992 507.41406 C 476.71391 507.53177 476.98298 507.65262 477.22852 507.77539 C 477.22901 507.77564 477.22998 507.77514 477.23047 507.77539 C 477.72095 508.0207 478.18034 508.28167 478.61133 508.55664 C 478.61179 508.55694 478.61282 508.55635 478.61328 508.55664 C 479.04421 508.83165 479.44541 509.12107 479.82031 509.42383 C 479.82071 509.42415 479.82187 509.4235 479.82227 509.42383 C 480.19713 509.72663 480.54487 510.04441 480.86719 510.37305 C 481.83513 511.35997 482.57407 512.45908 483.13086 513.64453 C 483.87305 515.22517 484.29157 516.95899 484.49805 518.78516 C 484.54971 519.24169 484.58833 519.70284 484.61523 520.16992 C 484.74971 522.50597 484.59633 524.96194 484.37305 527.41797 C 484.19447 529.38226 484.21763 531.30162 484.46875 533.07617 C 484.53152 533.51981 484.60742 533.95302 484.69922 534.37695 C 484.69935 534.37757 484.69909 534.37829 484.69922 534.37891 C 484.79093 534.80218 484.89801 535.21474 485.01953 535.61523 C 485.50642 537.22032 486.23568 538.6285 487.23633 539.74219 C 487.48638 540.02051 487.75279 540.2817 488.03711 540.52148 C 488.32176 540.76162 488.62348 540.97938 488.94336 541.17773 C 489.49962 541.52267 490.12069 541.79056 490.78711 541.99609 C 490.88569 542.02648 490.97513 542.06858 491.07617 542.0957 C 491.07678 542.09587 491.07752 542.09554 491.07812 542.0957 C 491.14149 542.1127 491.213 542.11907 491.27734 542.13477 C 492.00976 542.3136 492.79649 542.41797 493.6582 542.41797 C 495.06388 542.41797 496.37011 541.98908 497.55859 541.24414 C 497.75673 541.11989 497.95297 540.98715 498.14453 540.8457 C 498.71889 540.42162 499.26285 539.92199 499.77539 539.36133 C 500.45953 538.61296 501.08689 537.75581 501.65234 536.82031 C 502.21753 535.88525 502.72137 534.87228 503.1582 533.81445 C 503.59504 532.75663 503.96495 531.65353 504.26367 530.53711 C 505.01048 527.74606 505.3111 524.87333 505.08789 522.41797 C 505.04325 521.9269 504.96436 521.43942 504.85938 520.95898 C 504.75439 520.47855 504.62277 520.00433 504.4707 519.53906 C 504.01451 518.14327 503.37577 516.82607 502.73438 515.64844 C 502.09298 514.47081 501.44922 513.43275 500.98047 512.5957 C 500.66839 512.03843 500.43353 511.57011 500.33008 511.20898 C 500.32989 511.20831 500.33027 511.2077 500.33008 511.20703 C 500.27894 511.02806 500.26159 510.87601 500.28125 510.75195 C 500.28134 510.75137 500.28116 510.75058 500.28125 510.75 C 500.28136 510.74935 500.28114 510.74869 500.28125 510.74805 C 500.31212 510.56102 500.43153 510.4409 500.66211 510.39258 C 500.89274 510.34429 501.23392 510.36891 501.70898 510.47461 C 502.3424 510.61555 503.21233 510.90122 504.37305 511.34766 C 504.66322 511.45926 504.94624 511.57543 505.2207 511.69922 C 508.23978 513.06093 510.32778 515.13749 511.91992 517.43555 C 512.49851 518.27075 513.01199 519.1358 513.48047 520.00586 C 513.48073 520.00635 513.4802 520.00732 513.48047 520.00781 C 514.65192 522.18364 515.54574 524.39447 516.48633 526.26953 C 516.48658 526.27004 516.48607 526.27097 516.48633 526.27148 C 516.67423 526.64602 516.86425 527.00677 517.05859 527.35156 C 517.05887 527.35205 517.05832 527.35303 517.05859 527.35352 C 517.25294 527.69825 517.4522 528.02685 517.6582 528.33594 C 517.8645 528.64547 518.07757 528.93722 518.30078 529.20508 C 518.524 529.47294 518.77267 529.72111 519.04297 529.95312 C 519.58356 530.41715 520.21304 530.81084 520.9043 531.13672 C 521.59555 531.46259 522.34893 531.7213 523.14062 531.91602 C 526.70268 532.7924 531.02813 532.3743 533.82812 530.98438 C 534.45033 530.67532 534.99693 530.31976 535.44336 529.91797 C 535.44373 529.91764 535.44494 529.9183 535.44531 529.91797 C 535.55692 529.81752 535.66187 529.70908 535.76172 529.5957 C 536.26095 529.02884 536.61404 528.30582 536.83398 527.46484 C 536.92196 527.12845 536.98912 526.77344 537.03516 526.40234 C 537.12723 525.66016 537.13658 524.85351 537.07031 524.00391 C 537.00405 523.1543 536.86244 522.26088 536.65039 521.3457 C 536.43834 520.43053 536.15583 519.49358 535.81055 518.55469 C 535.6379 518.08524 535.44969 517.61597 535.24609 517.14844 C 534.8389 516.21338 534.3712 515.28662 533.84961 514.39062 C 533.32829 513.49509 532.75197 512.62917 532.12891 511.81445 C 532.1286 511.81405 532.12921 511.8129 532.12891 511.8125 C 531.8175 511.40536 531.49267 511.01193 531.1582 510.63281 C 531.1579 510.63247 531.1585 510.6312 531.1582 510.63086 C 530.89167 510.32878 530.60025 510.03235 530.28711 509.73828 C 529.66186 509.15111 528.95312 508.57864 528.19141 508.01758 C 528.19099 508.01727 528.18987 508.01789 528.18945 508.01758 C 527.8088 507.73719 527.41609 507.45891 527.01367 507.18359 C 527.01323 507.18329 527.01216 507.1839 527.01172 507.18359 C 526.20595 506.63236 525.36508 506.08947 524.52148 505.55273 C 523.67742 505.01573 522.8316 504.48532 522.01562 503.95508 C 521.20053 503.42541 520.41661 502.89588 519.69531 502.36523 C 519.69489 502.36492 519.69379 502.36555 519.69336 502.36523 C 519.33254 502.09976 518.98905 501.83358 518.66406 501.56641 C 518.33908 501.29925 518.03482 501.03154 517.75391 500.76172 C 517.47299 500.49189 517.21495 500.22073 516.98633 499.94727 C 516.52909 499.40034 516.18497 498.84462 515.98633 498.27734 C 515.93667 498.13553 515.89616 497.993 515.86523 497.84961 C 515.83431 497.70622 515.8139 497.56306 515.80273 497.41797 C 515.75809 496.83761 515.8291 496.31153 515.99023 495.83789 C 516.31233 494.8911 516.98938 494.1472 517.79102 493.56836 C 517.92152 493.47419 518.05915 493.39226 518.19531 493.30664 C 518.26826 493.26073 518.33797 493.20955 518.41211 493.16602 C 518.41287 493.16557 518.4133 493.16451 518.41406 493.16406 C 519.05133 492.79053 519.72812 492.50331 520.3457 492.28711 C 520.75795 492.14272 521.14453 492.02985 521.47656 491.94336 C 522.14057 491.7705 522.58594 491.70508 522.58594 491.70508 C 522.87612 491.71624 523.16816 491.73495 523.46094 491.76367 C 523.46159 491.76374 523.46224 491.76361 523.46289 491.76367 C 523.75503 491.79237 524.04746 491.82998 524.3418 491.875 C 524.34244 491.8751 524.34311 491.8749 524.34375 491.875 C 528.47286 492.50709 532.79931 494.68978 536.7832 496.83789 C 539.06006 498.06557 541.22456 499.28181 543.17773 500.19141 C 543.17825 500.19164 543.17918 500.19117 543.17969 500.19141 C 544.88805 500.98689 546.43539 501.54803 547.75195 501.67578 C 547.9401 501.69404 548.12221 501.70508 548.30078 501.70508 C 549.27591 501.70508 550.0956 501.53671 550.80078 501.24414 C 550.96515 501.17595 551.12231 501.10036 551.27344 501.01758 C 551.66127 500.80514 552.01723 500.55659 552.32422 500.25391 C 552.62685 499.95562 552.88431 499.60445 553.11719 499.22656 C 553.17334 499.13545 553.23665 499.05248 553.28906 498.95703 C 553.28934 498.95653 553.28879 498.95558 553.28906 498.95508 C 553.55901 498.46314 553.78027 497.91437 553.96094 497.31641 C 554.59326 495.22352 554.73047 492.5293 554.73047 489.56055 C 554.73047 488.71138 554.61839 487.92996 554.39258 487.20312 C 554.05449 486.11491 553.4615 485.15013 552.60547 484.26953 C 552.60485 484.2689 552.60413 484.26821 552.60352 484.26758 C 552.31828 483.97419 552.00394 483.69031 551.66016 483.41406 C 551.65976 483.41375 551.6586 483.41438 551.6582 483.41406 C 551.41048 483.21506 551.1299 483.02346 550.85156 482.83203 C 550.74307 482.75743 550.65027 482.67903 550.53711 482.60547 C 550.13412 482.34343 549.70282 482.0887 549.24023 481.83789 C 549.23975 481.83763 549.23877 481.83816 549.23828 481.83789 C 548.7756 481.58707 548.28257 481.34021 547.75977 481.09766 C 547.75925 481.09742 547.75833 481.0979 547.75781 481.09766 C 547.23439 480.85486 546.68185 480.61444 546.09766 480.37695 C 544.92927 479.90192 543.63923 479.43443 542.22461 478.96289 C 542.22406 478.96271 542.2232 478.96307 542.22266 478.96289 C 539.39377 478.01998 536.06901 477.0595 532.23047 475.98828 C 532.22985 475.98811 532.22913 475.98845 532.22852 475.98828 C 531.74922 475.85452 531.27416 475.73199 530.80273 475.61914 C 530.80211 475.61899 530.80141 475.61929 530.80078 475.61914 C 530.32939 475.50632 529.86153 475.40379 529.39844 475.31055 C 529.39779 475.31042 529.39713 475.31068 529.39648 475.31055 C 527.5424 474.93742 525.75624 474.71401 524.05273 474.60156 C 523.20068 474.54532 522.3697 474.51674 521.56055 474.50977 C 521.54651 474.50964 521.53355 474.50987 521.51953 474.50977 C 519.96748 474.49784 518.50187 474.56795 517.12695 474.67969 C 517.08146 474.68338 517.03161 474.68567 516.98633 474.68945 C 516.27416 474.74906 515.58664 474.81957 514.92773 474.89648 C 514.26821 474.97344 513.63587 475.05695 513.0332 475.14062 C 511.2252 475.39164 509.68085 475.64955 508.44727 475.76953 C 508.03678 475.80946 507.66024 475.83367 507.32031 475.83789 C 506.97906 475.84209 506.67479 475.82573 506.4082 475.7832 C 506.27582 475.76216 506.15242 475.73374 506.03906 475.69922 C 506.03845 475.69903 506.03772 475.69941 506.03711 475.69922 C 505.99158 475.68531 505.95452 475.66467 505.91211 475.64844 C 505.84829 475.62393 505.78125 475.6023 505.72461 475.57227 C 505.63094 475.52282 505.54839 475.46593 505.47461 475.40039 C 505.32647 475.26845 505.21943 475.10345 505.1543 474.89844 C 505.12173 474.79593 505.09905 474.68331 505.08789 474.56055 C 505.04324 474.06947 505.1483 473.49512 505.375 472.85547 C 505.37519 472.85494 505.37481 472.85404 505.375 472.85352 C 505.82861 471.57453 506.76499 470.0356 507.94336 468.38867 C 509.12172 466.74175 510.543 464.98538 511.9668 463.27148 C 511.96739 463.27077 511.96815 463.27025 511.96875 463.26953 C 512.68035 462.41297 513.3931 461.56689 514.07617 460.75 C 514.07679 460.74926 514.07751 460.74879 514.07812 460.74805 C 514.76138 459.93093 515.415 459.14407 516.00977 458.4043 C 516.01012 458.40385 516.00941 458.40279 516.00977 458.40234 C 516.4657 457.83523 516.84594 457.32829 517.21875 456.82617 C 517.33197 456.67367 517.48202 456.49314 517.58594 456.34766 C 517.58645 456.34694 517.58738 456.34642 517.58789 456.3457 C 517.8111 456.0332 518.03481 455.70578 518.25586 455.36328 C 518.91859 454.33646 519.54993 453.18057 520.02148 451.94727 C 520.88667 449.68446 521.21253 447.15487 520.20508 444.64844 C 520.20486 444.6479 520.2053 444.64703 520.20508 444.64648 C 520.11345 444.41866 520.01076 444.19205 519.89648 443.96484 C 519.3251 442.82881 518.46347 441.7028 517.23633 440.61523 C 516.74547 440.18021 516.19649 439.7512 515.58398 439.33008 C 515.58355 439.32978 515.58247 439.33038 515.58203 439.33008 C 515.27621 439.11982 514.95512 438.91122 514.61719 438.70508 C 514.61672 438.70479 514.6157 438.70536 514.61523 438.70508 C 513.9387 438.29252 513.19711 437.88756 512.38477 437.49414 C 512.38425 437.49389 512.38333 437.49439 512.38281 437.49414 C 511.97688 437.29755 511.55491 437.10327 511.11328 436.91211 C 511.11275 436.91188 511.11186 436.91234 511.11133 436.91211 C 510.66958 436.72095 510.20911 436.53099 509.73047 436.3457 C 509.0385 436.07785 508.39029 435.92599 507.78125 435.87891 C 507.77862 435.8787 507.77607 435.87911 507.77344 435.87891 C 506.86308 435.80987 506.03983 435.97562 505.29492 436.33984 C 504.93347 436.51657 504.59621 436.7554 504.26953 437.02148 C 504.14608 437.12209 504.01915 437.21362 503.90039 437.32617 C 503.68424 437.53104 503.47472 437.75568 503.27344 437.99805 C 502.87079 438.48289 502.4969 439.04137 502.14844 439.66016 C 502.14799 439.66096 502.14694 439.66131 502.14648 439.66211 C 501.9725 439.97132 501.80438 440.29618 501.64258 440.63477 C 501.64219 440.63558 501.64101 440.6359 501.64062 440.63672 C 501.31625 441.3155 501.0171 442.04946 500.73633 442.83008 C 500.59594 443.2204 500.46091 443.62148 500.33008 444.0332 C 500.06813 444.85736 499.82471 445.71957 499.5957 446.61328 C 497.76542 453.75599 496.87165 462.77563 495.08594 468.13281 C 494.97456 468.46674 494.85531 468.78583 494.72656 469.08984 C 494.72625 469.09059 494.72493 469.09105 494.72461 469.0918 C 494.33741 470.00608 493.87547 470.78661 493.35547 471.45312 C 493.18213 471.6753 493.00179 471.88486 492.81641 472.08203 C 492.63679 472.27306 492.4514 472.45236 492.26172 472.62109 C 492.25629 472.62592 492.25153 472.63191 492.24609 472.63672 C 492.24542 472.63732 492.24482 472.63807 492.24414 472.63867 C 492.0487 472.8114 491.8473 472.97263 491.64258 473.12305 C 491.64185 473.12358 491.64135 473.12447 491.64062 473.125 C 491.43588 473.27533 491.22636 473.41564 491.01367 473.54492 C 490.58679 473.80442 490.14412 474.02283 489.69336 474.20508 C 489.46852 474.29592 489.24048 474.37766 489.01172 474.45117 C 488.71124 474.54775 488.40613 474.61832 488.10156 474.6875 C 486.77943 474.98755 485.4337 475.05532 484.1875 474.98242 C 483.74855 474.95674 483.32273 474.91572 482.91406 474.86328 C 480.46669 474.54926 478.6582 473.8457 478.6582 473.8457 C 469.39917 473.15984 407.55821 446.27444 390.54883 439.03906 C 381.53559 434.13806 372.81388 428.85695 364.94141 423.2793 C 365.77221 422.86024 366.58011 422.439 367.36133 422.01562 C 367.36634 422.01291 367.37194 422.01053 367.37695 422.00781 C 367.37747 422.00754 367.37839 422.00809 367.37891 422.00781 C 367.56134 421.90889 367.73453 421.80812 367.91406 421.70898 C 368.11751 421.59687 368.31014 421.48543 368.50977 421.37305 C 368.89234 421.15729 369.28435 420.94123 369.65234 420.72461 C 369.98079 420.53126 370.28528 420.33849 370.60156 420.14453 C 370.91332 419.95359 371.22988 419.76182 371.5293 419.57031 C 371.60177 419.52391 371.68217 419.47807 371.75391 419.43164 C 371.84159 419.37488 371.92124 419.31852 372.00781 419.26172 C 372.58051 418.88631 373.13667 418.50794 373.6582 418.13086 C 374.8706 417.25419 376.0594 416.36665 377.2207 415.46484 C 378.38161 414.56335 379.51588 413.64792 380.62305 412.7207 C 382.83809 410.8656 384.94402 408.95779 386.92773 406.99609 C 387.91962 406.01525 388.88054 405.02012 389.81055 404.01172 C 392.13557 401.49071 394.26309 398.88348 396.17188 396.18359 C 396.55363 395.64362 396.92692 395.1001 397.29102 394.55273 C 398.01921 393.45801 398.71167 392.34736 399.36719 391.22266 C 400.02227 390.09871 400.64089 388.95918 401.2207 387.80469 C 401.22109 387.80391 401.22227 387.80351 401.22266 387.80273 C 402.09289 386.06979 402.8753 384.30348 403.56836 382.5 C 404.0304 381.29768 404.45211 380.07818 404.83203 378.84375 C 406.16176 374.52324 406.98105 370.00399 407.23047 365.27344 C 407.36388 362.74297 406.33425 359.28554 404.30859 355.79102 C 403.88101 354.95473 403.42545 354.10145 402.91016 353.20703 C 402.32435 352.19024 401.68302 351.13716 400.98828 350.05273 C 399.5988 347.88388 397.9962 345.58687 396.19922 343.19531 C 394.40224 340.80375 392.41097 338.31806 390.24414 335.76758 C 386.99363 331.94154 383.34797 327.97301 379.37109 323.96875 C 378.04592 322.63444 376.68548 321.2952 375.28906 319.95703 C 375.28872 319.95671 375.28745 319.95736 375.28711 319.95703 C 374.09997 318.81943 372.87611 317.68193 371.64062 316.54688 C 372.26122 317.00372 372.8614 317.4511 373.50391 317.91797 C 378.32407 321.42053 376.0293 307.81836 376.0293 307.81836 C 372.74632 298.97952 362.39258 290.89648 362.39258 290.89648 C 362.39258 290.89648 351.5331 253.52257 316.17773 237.86523 C 314.48129 237.11395 312.80827 236.42216 311.14648 235.75781 C 311.26255 235.29857 313.2594 227.025 308.34961 218.92383 C 307.14586 216.93765 304.4774 215.32877 301.05078 214.08594 C 302.21127 198.17724 308.31759 161.40046 310.62109 146.95117 C 313.39901 129.52604 331.3307 58.814135 333.60352 32.802734 C 334.81097 18.984162 327.39439 12.008717 318.88867 11.798828 z "
       transform="matrix(0.26458333,0,0,0.26458333,0,87)"
       id="path109" />
    <path
       style="display:inline;fill:#79a35d;fill-opacity:1;stroke:#000000;stroke-width:1.41111112;stroke-linecap:round;stroke-linejoin:round;stroke-miterlimit:4;stroke-dasharray:none;stroke-opacity:1"
       d="m 51.785274,119.34243 c -1.201756,0.0104 -2.530744,0.55486 -3.381189,1.93683 -1.052897,1.71096 -2.834749,9.63877 -3.212725,11.71764 -0.377975,2.07887 -1.322842,2.45676 -1.889807,0.56689 -0.566963,-1.88989 -2.515865,-5.27597 -1.889808,-10.01645 0.209577,-1.5869 -4.376245,-1.1866 -5.764506,2.4567 -1.66202,4.36174 4.347022,10.20558 4.347022,10.20558 -3.118302,0.94493 -4.640672,-0.98696 -7.748362,0.56689 -2.078871,1.03943 -2.951554,4.9672 0.377753,6.14226 1.606399,0.56697 5.386232,-3.21294 7.370609,-0.8506 0,0 0.472543,6.23668 -1.228349,10.01644 -1.700895,3.77976 -7.18162,34.01786 -6.047692,42.33334 1.13393,8.31547 2.079019,14.17411 1.512054,15.875 -0.566965,1.70088 -8.315624,20.03274 -8.126638,23.8125 0.18899,3.77975 1.889808,6.80372 1.889808,6.80372 l -3.96875,-2.07895 c -3.9404,-2.06402 -11.528123,3.77939 -14.3629477,10.77195 -2.83482,6.99257 -2.079091,11.52828 3.0235887,15.21355 4.050641,2.92545 10.311191,7.2144 27.790034,10.60503 -0.533313,0.0659 -10.581748,1.30376 -13.710274,1.39578 -3.212796,0.0945 -12.189881,0.47262 -16.064135,2.17351 -3.8742567,1.70089 -6.0473234,4.15759 -6.2363104,5.10254 -0.188989,0.94495 0.188987,1.98444 1.9843747,1.41748 1.795386,-0.56696 3.8971557,-1.74894 6.9923367,-2.83497 5.38616,-1.88988 10.250937,-2.38981 15.402676,-2.55126 0,0 -5.67001,1.79554 -6.425964,2.1735 -0.755949,0.37799 -3.684823,1.22857 -7.370091,3.49643 -3.685267,2.26786 -5.4808777,6.0474 -3.590996,7.6538 1.889881,1.6064 7.179169,-0.50377 8.693525,-4.44107 0.944944,-2.45684 11.622548,-4.72478 11.622548,-4.72478 0,0 -4.792244,2.18905 -6.614583,5.29167 -2.175523,3.70393 -0.944795,4.53578 0.850593,4.72477 1.795386,0.18899 4.630134,-2.55141 9.165849,-6.70915 3.964773,-3.63437 10.306931,-8.43613 18.075899,-10.44586 8.944965,0.58373 12.918071,-0.70436 12.918071,-0.70436 0,0 2.619337,1.47503 5.205887,1.87225 l -0.009,0.0176 c 0.009,-0.0176 7.00764,1.9053 14.6141,1.0201 2.5009,0.0129 8.01122,0.25754 14.962915,1.90943 9.5439,2.26787 17.00864,6.42522 20.12694,7.46467 2.86043,0.95348 8.25948,-0.47937 6.50813,-3.56723 0.70222,0.45157 3.54647,2.05754 7.38249,1.2051 4.25223,-0.94494 4.53608,-3.96897 -4.15737,-7.55974 -1.03943,-2.74032 -3.591,-3.30737 -10.86703,-5.38624 -5.24845,-1.49955 -8.27466,-1.32704 -9.55911,-1.11466 3.86184,-1.67025 7.43876,-3.56281 10.126,-5.59449 3.62989,-2.74436 6.33131,-5.95305 4.25245,-11.81168 -2.07049,-5.83502 -6.39117,-7.07604 -11.56054,-5.77897 0.0925,-0.22126 0.16893,-0.43746 0.22118,-0.64648 0.94494,-3.77976 -0.56697,-12.09523 -5.29167,-19.84375 -2.00978,-3.29604 -3.08755,-5.04099 -3.79046,-6.16861 l 0.29404,-0.16227 c 0,0 -1.70097,1.2285 4.53564,-0.56689 6.2366,-1.79539 15.02448,-1.4177 17.10334,-0.37827 2.07888,1.03944 2.07932,3.11823 1.89033,5.1971 -0.18899,2.07887 0.47232,3.96875 2.4567,3.96875 1.98437,0 3.21256,-3.21279 3.02359,-5.29167 -0.189,-2.07887 -2.64548,-3.87397 -0.18862,-2.92902 2.45684,0.94494 2.7401,3.59086 3.68504,4.72478 0.94494,1.13393 3.5907,1.03907 4.53564,0.18862 0.94494,-0.85045 0.28363,-3.49613 -1.13378,-5.10253 -1.12708,-1.27736 -3.96881,-2.26801 -4.06332,-3.49643 -0.0945,-1.22843 1.79524,-1.51153 1.79524,-1.51153 2.45685,0.0945 5.29181,2.64583 6.80372,2.64583 1.5119,0 1.70067,-1.41785 1.70067,-3.21324 0,-1.79539 -1.88988,-2.45656 -5.95312,-3.59049 -4.06325,-1.13394 -7.08698,0.66116 -7.18147,-0.37826 -0.0945,-1.03945 2.36235,-3.49592 3.30729,-4.81883 0.94494,-1.32292 1.97849,-3.72105 -2.07895,-5.29166 -2.92932,-1.13394 -2.92924,5.57498 -3.87418,8.40982 -0.94494,2.83482 -4.3465,1.51204 -4.3465,1.51204 -2.54695,-0.18867 -19.31308,-5.74529 -30.087577,-13.37903 0.88465,-0.44622 1.67046,-0.90241 2.30632,-1.36219 5.132467,-3.71125 8.580467,-8.26347 8.882147,-13.98518 0.24957,-4.73322 -17.764805,-24.56831 -33.639805,-24.94628 -15.386127,-0.36634 -27.541112,19.093 -28.277344,20.2954 -5.29e-4,-2.1e-4 -0.0708,-0.0263 -0.0708,-0.0263 -1.133927,-15.73326 -0.716071,-19.26435 1.512051,-31.79755 1.511906,-8.50447 8.315328,-6.23631 10.394199,-6.23631 2.078868,0 1.889953,-0.75588 2.078942,-1.88981 0.188989,-1.13393 0.369306,-2.82166 -0.566891,-3.591 -1.266367,-1.04066 -3.402007,-0.94479 -4.91391,0.18914 -1.511906,1.13393 -5.480286,3.02359 -5.480286,3.02359 0,0 0.09405,-4.06295 2.739882,-9.5436 2.645834,-5.48066 3.685712,-7.8433 2.551785,-8.97723 -0.496096,-0.4961 -1.354058,-0.81113 -2.288749,-0.80305 z"
       id="path109-1"
       inkscape:connector-curvature="0"
       sodipodi:nodetypes="ccscsscsscssccccsccsscssccssscssscccccsscccccccccsccsssscscssccssccsccccccsccssssscsccc" />
    <path
       style="display:inline;fill:#c0d07c;fill-opacity:1;stroke:none;stroke-width:1.41111112;stroke-linecap:butt;stroke-linejoin:miter;stroke-miterlimit:4;stroke-dasharray:none;stroke-opacity:1"
       d="m 100.84843,177.36111 c -0.82034,-0.0199 -1.704437,0.0998 -2.646877,0.39894 -6.031568,1.91457 -8.408858,9.47606 -22.393978,10.98796 -7.893747,0.85338 -20.482562,-2.39757 -23.056468,-7.98453 -2.515399,-5.45996 -6.992856,-1.65364 -6.992856,-1.65364 0,0 -5.62561,10.31119 -0.756025,18.33169 0.687845,1.13293 2.08086,2.07368 3.840075,2.85513 -3.162157,6.29886 -10.6539,21.85862 -11.399306,29.46177 -0.944941,9.6384 -1.70104,14.55201 3.779615,21.73355 5.480656,7.18156 12.851191,18.71004 26.458338,18.14308 13.607137,-0.56696 18.520967,-3.96868 26.647457,-13.79606 8.126495,-9.82738 8.693165,-18.33192 0.944648,-32.50602 -4.929678,-9.01772 -4.656808,-17.34119 -3.806488,-22.20795 2.91246,-1.05608 5.691388,-2.2607 7.397478,-3.49436 5.132477,-3.71125 8.580467,-8.26348 8.882157,-13.98519 0.10528,-1.99683 -2.46795,-6.17688 -6.89777,-6.28437 z"
       id="path109-6-7-9"
       inkscape:connector-curvature="0" />
    <path
       style="display:inline;fill:#c4b286;fill-opacity:1;stroke:#000000;stroke-width:1.41111112;stroke-linecap:butt;stroke-linejoin:miter;stroke-miterlimit:4;stroke-dasharray:none;stroke-opacity:1"
       d="m 72.296405,144.05501 c 0,0 3.27405,-14.43255 4.81085,-28.73147 1.5368,-14.29892 0.86863,-18.70887 2.00452,-21.181113 2.2718,-5.813111 9.75534,-5.34539 9.15398,1.536801 -0.60135,6.882182 -5.34539,25.591052 -6.08038,30.201452 -0.73499,4.6104 -2.93996,17.84024 -2.53906,19.57749 0.40091,1.73725 -7.34991,-1.40316 -7.34991,-1.40316 z"
       id="path5073-4"
       inkscape:connector-curvature="0"
       sodipodi:nodetypes="csccscc" />
    <path
       style="display:inline;opacity:1;vector-effect:none;fill:#9d6c4c;fill-opacity:1;stroke:#000000;stroke-width:1.41111112;stroke-linecap:butt;stroke-linejoin:miter;stroke-miterlimit:4;stroke-dasharray:none;stroke-dashoffset:0;stroke-opacity:1"
       d="m 68.554635,147.46269 c 0,0 0.52457,-2.6622 2.13815,-4.00904 1.43722,-1.19961 9.55489,-0.73498 10.89124,1.46999 1.33635,2.20498 0.73499,4.47676 0.73499,4.47676 l -1.33635,1.67044 -11.89349,-1.93771 z"
       id="path5041-7"
       inkscape:connector-curvature="0"
       sodipodi:nodetypes="cscc" />
    <path
       style="display:inline;fill:none;stroke:#000000;stroke-width:1.41111112;stroke-linecap:round;stroke-linejoin:round;stroke-miterlimit:4;stroke-dasharray:none;stroke-opacity:1"
       d="m 79.776185,204.6232 c 0,0 14.10475,-3.38935 19.087798,-6.99256 5.132467,-3.71125 8.580757,-8.26341 8.882437,-13.98512 0.24957,-4.73322 -17.764885,-24.56845 -33.639885,-24.94643 -15.874998,-0.37797 -28.34821,20.41071 -28.34821,20.41071 0,0 -5.625536,10.31135 -0.755952,18.33185 3.212797,5.29167 21.733631,6.4256 21.733631,6.4256"
       id="path109-6-8"
       inkscape:connector-curvature="0"
       sodipodi:nodetypes="cssscsc" />
    <path
       style="display:inline;fill:none;stroke:#000000;stroke-width:1.41111112;stroke-linecap:round;stroke-linejoin:round;stroke-miterlimit:4;stroke-dasharray:none;stroke-opacity:1"
       d="m 45.758324,178.73183 c -0.755952,-8.69346 -0.716218,-19.02781 1.511905,-31.56101 1.511905,-8.50446 8.315475,-6.23661 10.394346,-6.23661 2.078868,0 1.889879,-0.75595 2.078868,-1.88988 0.188989,-1.13393 0.369231,-2.82143 -0.566965,-3.59077 -1.266368,-1.04066 -3.401786,-0.94494 -4.913689,0.18899 -1.511906,1.13393 -5.480655,3.02381 -5.480655,3.02381 0,0 0.09449,-4.06325 2.740326,-9.5439 2.645833,-5.48066 3.685268,-7.84301 2.55134,-8.97694 -1.13393,-1.13392 -4.157737,-1.32291 -5.669642,1.13393 -1.052896,1.71096 -2.834822,9.6384 -3.212798,11.71726 -0.377976,2.07887 -1.322917,2.45685 -1.889882,0.56697 -0.566962,-1.88988 -2.515937,-5.27589 -1.889879,-10.01637 0.209576,-1.5869 -4.375879,-1.18645 -5.764139,2.45684 -1.66202,4.36174 4.346727,10.20536 4.346727,10.20536 -3.118303,0.94494 -4.640821,-0.98688 -7.748512,0.56696 -2.07887,1.03944 -2.951332,4.96706 0.377976,6.14212 1.6064,0.56697 5.386157,-3.21279 7.370536,-0.85044 0,0 0.472471,6.23661 -1.228421,10.01636 -1.700895,3.77977 -7.181549,34.01786 -6.047621,42.33333 1.13393,8.31548 2.078871,14.17412 1.511906,15.875 -0.566965,1.70089 -8.315476,20.03274 -8.126489,23.8125 0.188989,3.77976 1.889881,6.80357 1.889881,6.80357 0,0 3.401785,7.9375 13.796132,16.064"
       id="path111-7-4"
       inkscape:connector-curvature="0"
       sodipodi:nodetypes="csssascscsscsscscssssscc" />
    <path
       style="display:inline;fill:none;stroke:#000000;stroke-width:1.41111112;stroke-linecap:round;stroke-linejoin:round;stroke-miterlimit:4;stroke-dasharray:none;stroke-opacity:1"
       d="m 27.993443,240.90891 -3.96875,-2.07887 c -3.9404,-2.06402 -11.528272,3.77976 -14.3630947,10.77232 -2.83482,6.99256 -2.07887,11.52829 3.0238097,15.21356 4.079498,2.9463 10.394344,7.27603 28.159226,10.67782 17.764881,3.40179 25.324403,0.94493 25.324403,0.94493 0,0 4.346728,2.45686 7.370538,1.88988 3.02381,-0.56696 18.33184,-10.01637 24.757438,-15.11904 6.425597,-5.10268 14.174117,-10.96131 15.119057,-14.74108 0.94494,-3.77976 -0.56697,-12.09523 -5.29167,-19.84375 -4.7247,-7.74851 -4.91369,-7.9375 -4.91369,-7.9375 0,0 1.5119,-2.45684 0.94494,-5.85863"
       id="path113-5-5"
       inkscape:connector-curvature="0"
       sodipodi:nodetypes="csssscccsscc" />
    <path
       style="display:inline;fill:none;stroke:#000000;stroke-width:1.41111112;stroke-linecap:butt;stroke-linejoin:miter;stroke-miterlimit:4;stroke-dasharray:none;stroke-opacity:1"
       d="m 113.13259,249.12989 c 5.19717,-1.32292 9.5439,-0.0945 11.62277,5.76414 2.07886,5.85864 -0.62235,9.0674 -4.25224,11.81175 -8.53513,6.45296 -26.041335,11.50549 -33.167415,12.47323 -8.41254,1.14243 -13.51265,0.37797 -15.96949,-0.85046"
       id="path115-3-0"
       inkscape:connector-curvature="0"
       sodipodi:nodetypes="ccssc" />
    <path
       style="display:inline;fill:none;stroke:#000000;stroke-width:1.41111112;stroke-linecap:butt;stroke-linejoin:miter;stroke-miterlimit:4;stroke-dasharray:none;stroke-opacity:1"
       d="m 40.655646,275.39924 c 0,0 -10.677828,1.32291 -13.890626,1.41741 -3.212796,0.0945 -12.189732,0.47247 -16.063986,2.17336 -3.8742567,1.70089 -6.0476204,4.15774 -6.2366074,5.10268 -0.188989,0.94494 0.188987,1.98437 1.9843747,1.41741 1.795386,-0.56696 3.8973787,-1.74879 6.9925587,-2.83482 5.386161,-1.88988 10.250789,-2.38991 15.402529,-2.55135 0,0 -5.669642,1.7954 -6.425594,2.17337 -0.755951,0.37798 -3.685268,1.22842 -7.370536,3.49628 -3.685267,2.26786 -5.4806557,6.04762 -3.590774,7.65402 1.889882,1.6064 7.179096,-0.50391 8.693452,-4.44122 0.944942,-2.45684 11.622767,-4.7247 11.622767,-4.7247 0,0 -4.792242,2.18904 -6.614583,5.29166 -2.175523,3.70393 -0.94494,4.53572 0.850448,4.72471 1.795386,0.18899 4.630209,-2.55134 9.165923,-6.70908 3.992367,-3.65967 9.638392,-8.50447 17.481396,-10.48884"
       id="path117-5-3"
       inkscape:connector-curvature="0"
       sodipodi:nodetypes="csscssccssscsssc" />
    <path
       style="display:inline;fill:none;stroke:#000000;stroke-width:1.41111112;stroke-linecap:round;stroke-linejoin:round;stroke-miterlimit:4;stroke-dasharray:none;stroke-opacity:1"
       d="m 46.986745,266.04433 c 0,0 4.913691,5.38616 15.780507,8.22098"
       id="path119-6-6"
       inkscape:connector-curvature="0" />
    <path
       style="display:inline;fill:none;stroke:#000000;stroke-width:1.41111112;stroke-linecap:round;stroke-linejoin:round;stroke-miterlimit:4;stroke-dasharray:none;stroke-opacity:1"
       d="m 62.956241,255.74447 c 1.228421,3.49629 5.102678,3.11832 6.614584,3.30731"
       id="path121-2-1"
       inkscape:connector-curvature="0" />
    <path
       style="display:inline;fill:none;stroke:#000000;stroke-width:0.70555556;stroke-linecap:round;stroke-linejoin:round;stroke-miterlimit:4;stroke-dasharray:none;stroke-opacity:1"
       d="m 65.035109,218.51382 c 0,0 -4.535715,0.56697 -9.638392,3.96875"
       id="path123-9-0"
       inkscape:connector-curvature="0" />
    <path
       style="display:inline;fill:none;stroke:#000000;stroke-width:0.70555556;stroke-linecap:round;stroke-linejoin:round;stroke-miterlimit:4;stroke-dasharray:none;stroke-opacity:1"
       d="m 59.270974,224.27796 c 0,0 3.212795,-3.68527 13.040181,-5.00819"
       id="path125-1-6"
       inkscape:connector-curvature="0" />
    <path
       style="display:inline;fill:none;stroke:#000000;stroke-width:0.70555556;stroke-linecap:round;stroke-linejoin:round;stroke-miterlimit:4;stroke-dasharray:none;stroke-opacity:1"
       d="m 65.129603,222.76605 c 0,0 6.142112,-4.06324 14.646582,-5.66964"
       id="path127-2-3"
       inkscape:connector-curvature="0" />
    <path
       style="display:inline;fill:none;stroke:#000000;stroke-width:0.70555556;stroke-linecap:round;stroke-linejoin:round;stroke-miterlimit:4;stroke-dasharray:none;stroke-opacity:1"
       d="m 70.893745,223.23852 c 0,0 6.89806,-4.25223 10.20535,-4.25223"
       id="path129-7-2"
       inkscape:connector-curvature="0" />
    <path
       style="display:inline;fill:none;stroke:#000000;stroke-width:1.41111112;stroke-linecap:round;stroke-linejoin:round;stroke-miterlimit:4;stroke-dasharray:none;stroke-opacity:1"
       d="m 96.407133,198.85906 c 0,0 2.55134,2.45685 6.142117,3.96875 3.59077,1.5119 21.54465,9.35491 24.09598,9.5439 0,0 3.40179,1.32292 4.34673,-1.5119 0.94494,-2.83483 0.94494,-9.5439 3.87426,-8.40997 4.05744,1.57062 3.02381,3.96874 2.07887,5.29167 -0.94494,1.32292 -3.40179,3.77976 -3.30729,4.8192 0.0945,1.03943 3.1183,-0.75596 7.18155,0.37798 4.06324,1.13393 5.95312,1.79539 5.95312,3.59078 0,1.79539 -0.18899,3.21279 -1.70089,3.21279 -1.51191,0 -4.34673,-2.55135 -6.80358,-2.64584 0,0 -1.88988,0.28348 -1.79538,1.51191 0.0945,1.22842 2.93616,2.21892 4.06324,3.49629 1.41741,1.6064 2.07887,4.25222 1.13393,5.10267 -0.94494,0.85044 -3.59078,0.94494 -4.53572,-0.18899 -0.94494,-1.13392 -1.22842,-3.77975 -3.68526,-4.72469 -2.45685,-0.94496 0,0.85043 0.18899,2.9293 0.18898,2.07887 -1.03944,5.29167 -3.02381,5.29167 -1.98438,0 -2.64584,-1.88988 -2.45685,-3.96875 0.18899,-2.07886 0.18899,-4.15773 -1.88988,-5.19718 -2.07887,-1.03943 -10.86682,-1.4174 -17.10342,0.37799 -6.23661,1.79539 -4.53572,0.56695 -4.53572,0.56695"
       id="path131-0-0"
       inkscape:connector-curvature="0"
       sodipodi:nodetypes="csccssscsscssscccsscsc" />
    <path
       style="display:inline;fill:none;stroke:#000000;stroke-width:1.41111112;stroke-linecap:butt;stroke-linejoin:miter;stroke-miterlimit:4;stroke-dasharray:none;stroke-opacity:1"
       d="m 84.500885,279.36799 c 0,0 6.89807,-0.37798 16.441965,1.88989 9.5439,2.26785 17.00893,6.42558 20.12723,7.46503 3.11831,1.03942 9.26042,-0.75596 5.85864,-4.44122 -1.03944,-1.6064 -5.66965,-2.92932 -8.22099,-3.87426 -3.09507,-1.14634 -10.58333,-0.94494 -10.58333,-0.94494"
       id="path3993-9-6"
       inkscape:connector-curvature="0"
       sodipodi:nodetypes="csccsc" />
    <path
       style="display:inline;fill:none;stroke:#000000;stroke-width:1.41111112;stroke-linecap:butt;stroke-linejoin:miter;stroke-miterlimit:4;stroke-dasharray:none;stroke-opacity:1"
       d="m 109.63631,272.46992 c 0,0 3.0238,-1.13392 10.29985,0.94495 7.27604,2.07887 9.82738,2.64583 10.86681,5.38615"
       id="path3995-3-1"
       inkscape:connector-curvature="0" />
    <path
       style="display:inline;fill:none;stroke:#000000;stroke-width:1.41111112;stroke-linecap:butt;stroke-linejoin:miter;stroke-miterlimit:4;stroke-dasharray:none;stroke-opacity:1"
       d="m 117.38482,275.77721 c 0,0 7.843,0.18898 13.41815,3.02381 8.69345,3.59077 8.40997,6.61459 4.15774,7.55953 -4.43635,0.98585 -7.55952,-1.32292 -7.55952,-1.32292"
       id="path3997-6-5"
       inkscape:connector-curvature="0"
       sodipodi:nodetypes="ccsc" />
    <path
       style="display:inline;fill:#000000;stroke:#000000;stroke-width:1.41111112;stroke-linecap:butt;stroke-linejoin:miter;stroke-miterlimit:4;stroke-dasharray:none;stroke-opacity:1"
       d="m 66.169037,251.58674 c 2.078871,0 2.362358,1.41741 1.606399,2.07887 -0.755952,0.66145 1.039439,2.26785 -0.377976,2.26785 -1.41741,0 -1.41741,-0.94494 -1.606399,-1.79538 -0.188987,-0.85045 -3.96875,-1.79539 0.377976,-2.55134 z"
       id="path3999-0-5"
       inkscape:connector-curvature="0" />
    <path
       style="display:inline;fill:none;stroke:#000000;stroke-width:1.41111112;stroke-linecap:round;stroke-linejoin:miter;stroke-miterlimit:4;stroke-dasharray:none;stroke-opacity:1"
       d="m 55.324791,186.35041 c -4.009043,-0.26727 -5.34539,2.00452 -7.216277,5.21175"
       id="path4961-4"
       inkscape:connector-curvature="0" />
    <path
       style="display:inline;opacity:1;vector-effect:none;fill:none;fill-opacity:1;stroke:#000000;stroke-width:1.41111112;stroke-linecap:round;stroke-linejoin:miter;stroke-miterlimit:4;stroke-dasharray:none;stroke-dashoffset:0;stroke-opacity:1"
       d="m 52.652095,187.01858 c 0,0 5.292642,3.71957 8.395824,4.77704 8.034836,2.73802 20.658736,4.74444 29.521476,-0.72353 5.865198,-3.6186 6.315808,-4.58805 8.453958,-7.52801"
       id="path4963-7"
       inkscape:connector-curvature="0"
       sodipodi:nodetypes="cssc" />
    <path
       style="display:inline;fill:none;stroke:#000000;stroke-width:1.41111112;stroke-linecap:round;stroke-linejoin:miter;stroke-miterlimit:4;stroke-dasharray:none;stroke-opacity:1"
       d="m 96.832353,182.74783 c 2.45685,-0.47248 3.543537,0.33072 3.638027,1.03943"
       id="path4969-6"
       inkscape:connector-curvature="0" />
    <path
       style="display:inline;opacity:1;vector-effect:none;fill:#000000;fill-opacity:1;stroke:#000000;stroke-width:1.41111112;stroke-linecap:butt;stroke-linejoin:miter;stroke-miterlimit:4;stroke-dasharray:none;stroke-dashoffset:0;stroke-opacity:1"
       d="m 61.047918,191.79562 c 8.034837,2.73802 20.658737,4.74444 29.521477,-0.72353 0,0 -3.1691,2.9246 -4.39261,3.72812 -1.36357,0.8955 -2.01432,1.40033 -4.65247,2.35796 -3.70537,1.34502 -7.18154,1.37016 -11.67001,0.0945 -2.244231,-0.63783 -3.654441,-1.45875 -5.212297,-2.49819 -1.503989,-1.00349 -3.59409,-2.95885 -3.59409,-2.95885 z"
       id="path4963-2-5"
       inkscape:connector-curvature="0"
       sodipodi:nodetypes="ccssssc" />
    <path
       style="display:inline;opacity:1;vector-effect:none;fill:#ffaaaa;fill-opacity:1;stroke:#000000;stroke-width:1.41111112;stroke-linecap:round;stroke-linejoin:round;stroke-miterlimit:4;stroke-dasharray:none;stroke-dashoffset:0;stroke-opacity:1"
       d="m 86.171445,194.39861 c -0.73102,0.71217 -1.87258,1.63657 -4.51073,2.5942 -3.70537,1.34502 -7.18154,1.37016 -11.67001,0.0945 -2.244225,-0.63783 -3.654435,-1.45875 -5.212291,-2.49819 0.802377,-0.59859 0.828537,-1.1194 2.591691,-0.96673 1.22907,0.10643 6.05631,0.84109 8.21113,0.86557 2.15482,0.0245 5.11293,-0.0549 8.61864,-0.51346 0,0 1.19281,-0.33564 1.97157,0.42411 z"
       id="path4963-2-6-6"
       inkscape:connector-curvature="0"
       sodipodi:nodetypes="csscsssc" />
    <path
       style="display:inline;fill:#000000;stroke:#000000;stroke-width:1.41111112;stroke-linecap:butt;stroke-linejoin:miter;stroke-miterlimit:4;stroke-dasharray:none;stroke-opacity:1"
       d="m 70.137785,180.85794 c -0.86625,-0.11262 0.29206,-0.99195 0.70871,-1.03943 0.83051,-0.0947 1.84263,1.70089 1.84263,1.70089 z"
       id="path5015-9"
       inkscape:connector-curvature="0"
       sodipodi:nodetypes="cscc" />
    <path
       style="display:inline;fill:#000000;stroke:#000000;stroke-width:1.41111112;stroke-linecap:butt;stroke-linejoin:miter;stroke-miterlimit:4;stroke-dasharray:none;stroke-opacity:1"
       d="m 76.374395,181.28317 c 0,0 -0.37798,-2.03163 0.8032,-1.65365 1.18118,0.37798 -0.8032,1.65365 -0.8032,1.65365 z"
       id="path5017-3"
       inkscape:connector-curvature="0" />
    <path
       style="display:inline;fill:none;stroke:#000000;stroke-width:1.41111112;stroke-linecap:round;stroke-linejoin:round;stroke-miterlimit:4;stroke-dasharray:none;stroke-opacity:1"
       d="m 55.207729,180.99969 c 0,0 7.087055,-2.45685 14.221356,-3.63802"
       id="path5019-7"
       inkscape:connector-curvature="0"
       sodipodi:nodetypes="cc" />
    <path
       style="display:inline;fill:none;stroke:#000000;stroke-width:1.41111112;stroke-linecap:round;stroke-linejoin:round;stroke-miterlimit:4;stroke-dasharray:none;stroke-opacity:1"
       d="m 80.768375,177.83413 c 0,0 7.51227,-1.03943 14.977298,-0.94494"
       id="path5021-4"
       inkscape:connector-curvature="0" />
    <path
       style="display:inline;fill:#c8d8be;fill-opacity:1;stroke:#000000;stroke-width:1.41111112;stroke-linecap:round;stroke-linejoin:round;stroke-miterlimit:4;stroke-dasharray:none;stroke-opacity:1"
       d="m 57.853562,180.10199 c 0,0 -3.827007,-0.47247 -4.393972,-4.25223 -0.566965,-3.77976 1.228421,-7.9375 5.480653,-9.35491 4.252233,-1.41741 10.259222,-2.0587 12.520462,3.16555 1.37016,3.16555 -0.85044,5.81137 -2.03162,7.70126 -3.874258,0.7087 -11.575523,2.74033 -11.575523,2.74033 z"
       id="path5023-5"
       inkscape:connector-curvature="0"
       sodipodi:nodetypes="cssscc" />
    <path
       style="display:inline;fill:#c8d8be;fill-opacity:1;stroke:#000000;stroke-width:1.41111112;stroke-linecap:round;stroke-linejoin:round;stroke-miterlimit:4;stroke-dasharray:none;stroke-opacity:1"
       d="m 85.115095,164.79396 c -3.84197,-0.16758 -7.74852,2.36235 -7.2288,7.46503 0.51972,5.10268 2.88208,5.57514 2.88208,5.57514 l 6.54371,-0.75595 6.82719,-0.28348 c 0,0 0.675188,-1.97113 -0.51972,-5.71689 -0.57606,-1.8058 -1.89164,-5.99542 -8.50446,-6.28385 z"
       id="path5025-2"
       inkscape:connector-curvature="0"
       sodipodi:nodetypes="sscccss" />
    <ellipse
       style="display:inline;opacity:1;vector-effect:none;fill:#000000;fill-opacity:1;stroke:#000000;stroke-width:1.41111112;stroke-linecap:round;stroke-linejoin:round;stroke-miterlimit:4;stroke-dasharray:none;stroke-dashoffset:0;stroke-opacity:1"
       id="path5027-5"
       cx="62.058544"
       cy="173.01494"
       rx="3.0238097"
       ry="2.5513394" />
    <ellipse
       style="display:inline;opacity:1;vector-effect:none;fill:#000000;fill-opacity:1;stroke:#000000;stroke-width:1.41111112;stroke-linecap:round;stroke-linejoin:round;stroke-miterlimit:4;stroke-dasharray:none;stroke-dashoffset:0;stroke-opacity:1"
       id="path5029-4"
       cx="85.46946"
       cy="172.25899"
       rx="2.2914805"
       ry="2.126116" />
    <ellipse
       style="display:inline;opacity:1;vector-effect:none;fill:#ffffff;fill-opacity:1;stroke:#ffffff;stroke-width:1.41111112;stroke-linecap:round;stroke-linejoin:round;stroke-miterlimit:4;stroke-dasharray:none;stroke-dashoffset:0;stroke-opacity:1"
       id="path5031-7"
       cx="56.483398"
       cy="173.98351"
       rx="1.3229166"
       ry="1.4882812" />
    <ellipse
       style="display:inline;opacity:1;vector-effect:none;fill:#ffffff;fill-opacity:1;stroke:#ffffff;stroke-width:1.41111112;stroke-linecap:round;stroke-linejoin:round;stroke-miterlimit:4;stroke-dasharray:none;stroke-dashoffset:0;stroke-opacity:1"
       id="path5033-4"
       cx="80.88649"
       cy="171.99913"
       rx="1.2047991"
       ry="1.4882812" />
    <path
       style="display:inline;fill:#9d6c4c;fill-opacity:1;stroke:#000000;stroke-width:1.41111112;stroke-linecap:round;stroke-linejoin:round;stroke-miterlimit:4;stroke-dasharray:none;stroke-opacity:1"
       d="m 48.977138,174.12283 c 4.944488,-4.6104 8.084905,-11.02487 24.121077,-12.16077 16.03617,-1.13589 15.01216,1.36975 25.724688,9.15398 1.275337,0.92672 0.66817,-2.67269 0.66817,-2.67269 -0.86862,-2.33861 -3.60814,-4.47677 -3.60814,-4.47677 0,0 -2.873138,-9.88897 -12.227578,-14.03164 -11.03832,-4.8884 -19.310217,-2.73952 -24.521973,2.40542 -5.211756,5.14494 -6.676909,9.46803 -6.748555,13.8312 0,0 -2.071339,1.60362 -3.0736,3.60814 -1.00226,2.00452 -1.40317,3.40769 -0.334089,4.34313 z"
       id="path5035-4"
       inkscape:connector-curvature="0"
       sodipodi:nodetypes="cssccssccc" />
    <path
       style="display:inline;fill:none;stroke:#000000;stroke-width:1.41111112;stroke-linecap:round;stroke-linejoin:miter;stroke-miterlimit:4;stroke-dasharray:none;stroke-opacity:1"
       d="m 52.384826,166.17156 c 0,0 4.476765,-6.21402 16.503889,-7.88446"
       id="path5037-3"
       inkscape:connector-curvature="0"
       sodipodi:nodetypes="cc" />
    <path
       style="display:inline;fill:none;stroke:#000000;stroke-width:1.41111112;stroke-linecap:round;stroke-linejoin:miter;stroke-miterlimit:4;stroke-dasharray:none;stroke-opacity:1"
       d="m 95.882933,163.96658 c 0,0 -1.403158,-1.33634 -3.073588,-2.40542"
       id="path5039-0"
       inkscape:connector-curvature="0"
       sodipodi:nodetypes="cc" />
    <path
       style="display:inline;opacity:1;vector-effect:none;fill:none;fill-opacity:1;stroke:#000000;stroke-width:1.41111112;stroke-linecap:butt;stroke-linejoin:miter;stroke-miterlimit:4;stroke-dasharray:none;stroke-dashoffset:0;stroke-opacity:1"
       d="m 68.554635,147.46269 c 0,0 0.52457,-2.6622 2.13815,-4.00904 1.43722,-1.19961 9.55489,-0.73498 10.89124,1.46999 1.33635,2.20498 0.73499,4.47676 0.73499,4.47676"
       id="path5041-8-7"
       inkscape:connector-curvature="0"
       sodipodi:nodetypes="cscc" />
  </g>
</svg>
